<?xml version="1.0" encoding="utf-8"?>
<!-- Generator: Adobe Illustrator 25.2.0, SVG Export Plug-In . SVG Version: 6.00 Build 0)  -->
<svg version="1.1" id="Ebene_1" xmlns="http://www.w3.org/2000/svg" xmlns:xlink="http://www.w3.org/1999/xlink" x="0px" y="0px"
	 viewBox="0 0 1200 500" style="enable-background:new 0 0 1200 500;" xml:space="preserve">
<style type="text/css">
	.st0{fill:#1EDC82;}
</style>
<g>
	<path class="st0" d="M346.5,179.3h-25.3l0,67.2c0,19.4-14,28.4-27.8,28.4c-14.1,0-28.3-9.3-28.5-30v-65.6h-25.3v65.5h0
		c0.3,20.7,9.3,33.5,16.9,40.6c9.8,9.2,23,14.2,37,14.2c26.5,0,53.3-19,53.3-55.2L346.5,179.3z"/>
	<path class="st0" d="M664.2,248.5c0.6-3.4,0.9-7,0.9-10.6c0-34.1-27.7-61.8-61.8-61.8s-61.8,27.7-61.8,61.8
		c0,34.1,27.7,61.8,61.8,61.8c23.9,0,40.1-7.5,54-25.3L636,261.6c-9.8,11.4-20.5,13.3-32.6,13.3c-16.7,0-30.9-11.2-35.4-26.4
		L664.2,248.5z M603.4,201c16.9,0,31.1,11.4,35.6,26.9h-71.1C572.3,212.3,586.5,201,603.4,201z"/>
	<path class="st0" d="M852.6,176.2c-34.3,0-62,26.8-62,61.7c0,34.7,27.7,61.7,62,61.7c34.5,0,62-27,62-61.7
		C914.6,203,887.1,176.2,852.6,176.2z M852.6,275.1c-20.7,0-36.6-15.7-36.6-37.1s16-37.1,36.6-37.1c20.7,0,36.6,15.7,36.6,37.1
		S873.3,275.1,852.6,275.1z"/>
	<g>
		<path class="st0" d="M767.9,257.6c-6.6,10.3-18.1,17.2-31.2,17.2c-20.4,0-37-16.6-37-37c0-20.4,16.6-37,37-37
			c12.9,0,24.3,6.6,30.9,16.7l17.7-17.7c-11.3-14.4-28.9-23.8-48.6-23.8c-34.1,0-61.8,27.7-61.8,61.8c0,34.1,27.7,61.8,61.8,61.8
			c19.9,0,37.7-9.5,49-24.2L767.9,257.6z"/>
	</g>
	<path class="st0" d="M393.8,153.9c0,7.9-6.4,14.3-14.3,14.3c-7.9,0-14.3-6.4-14.3-14.3c0-7.9,6.4-14.3,14.3-14.3
		C387.4,139.6,393.8,146,393.8,153.9"/>
	<path class="st0" d="M195.5,305.4c-1.5,17.1-15,29.5-32.2,29.5s-30.7-12.4-32.2-29.5l-25.7,0.2c1.7,31,26.6,54.4,57.9,54.4
		c31.3,0,56.2-23.4,57.9-54.4L195.5,305.4z"/>
	<rect x="366.8" y="179.3" class="st0" width="25.3" height="117.5"/>
	<path class="st0" d="M223.4,179.3c0,0-62.5,0-62.6,0c-33.4,0-60.4,26.1-60.4,60.1c0,33.8,27,60.1,60.4,60.1
		c33.6,0,60.4-26.3,60.4-60.1c0-14.9-5.1-28.3-13.7-38.7h16V179.3z M160.8,275c-19.8,0-35.1-15.1-35.1-35.5S141,204,160.8,204
		c19.8,0,35.1,15.1,35.1,35.5S180.6,275,160.8,275z"/>
	<path class="st0" d="M504.9,142.1v45.7c-10.2-7.3-22.9-11.6-36.6-11.6c-34.3,0-62,26.8-62,61.7c0,34.7,27.7,61.7,62,61.7
		c13.8,0,26.4-4.8,36.6-12.8v10h25.3V142.1H504.9z M468.3,275c-20.7,0-36.6-15.7-36.6-37.1s16-37.1,36.6-37.1
		c20.7,0,36.6,15.7,36.6,37.1S488.9,275,468.3,275z"/>
	<path class="st0" d="M1100.4,231.2L1100.4,231.2c-0.3-35.7-25.4-54.4-50.2-54.4c-13.1,0-25.3,5-34.4,14.1c-0.9,0.9-1.8,1.9-2.7,2.9
		c-9.3-11.1-22.7-16.9-35.9-17.1c-0.3,0-0.6,0-0.8,0c-10.1,0-18.9,3.3-26.4,9.8v-7.2h-23.8l-0.1,117.5h25.3l0.1-66.6
		c0-17.7,13.1-28.1,24.8-28.1c0.1,0,0.3,0,0.4,0c16.4,0.3,23.7,15.1,23.7,29.7l0.1,65h25.3l0-65.8c0-14.4,7.5-28.9,24.2-28.9
		c6.4,0,12.4,2.4,16.8,6.9c5.2,5.2,8,13.1,8,22.6v65.2h25.3V231.2z"/>
</g>
</svg>
