<?xml version="1.0" encoding="utf-8"?>
<!-- Generator: Adobe Illustrator 22.1.0, SVG Export Plug-In . SVG Version: 6.00 Build 0)  -->
<svg version="1.1"
	 id="Layer_1" xmlns:cc="http://creativecommons.org/ns#" xmlns:dc="http://purl.org/dc/elements/1.1/" xmlns:rdf="http://www.w3.org/1999/02/22-rdf-syntax-ns#"
	 xmlns="http://www.w3.org/2000/svg" xmlns:xlink="http://www.w3.org/1999/xlink" x="0px" y="0px" viewBox="0 0 286.8 276.2" width="322.238729355" height="310.328929735"
	 style="enable-background:new 0 0 286.8 276.2;" xml:space="preserve">
<style type="text/css">
	.st0{fill:#FFFFFF;}
</style>
<g>
	<path d="M139.6,2.2c2.9-0.2,5.7-0.1,8.6,0.1c2.2-0.1,4.4,0.2,6.5,0.3c14.9,1.1,29.6,4.5,43.4,10.1c20.1,8.1,38.3,20.8,52.7,36.9
		c16.5,18.2,27.9,41.1,32.2,65.3c1.2,6.4,1.6,12.8,2.1,19.3c0,2.6,0,5.2,0,7.8c-0.5,6.6-0.9,13.3-2.2,19.8
		c-2.4,13.4-7,26.4-13.5,38.5c-13.5,25.3-35.2,45.9-60.9,58.7c-16.7,8.4-35,13.5-53.6,14.9c-3,0.4-6.1,0.1-9.1,0.4
		c-2.4,0-4.8,0.1-7.2-0.2c-7.5,0.1-14.9-0.9-22.2-2.1c-23.5-4.4-46-14.6-64.6-29.7C35.5,229,22,212,13.2,192.7
		c-5.7-12.4-9.4-25.6-11-39.1c-0.2-3.3-0.8-6.6-0.8-10c0-4,0-8.1,0-12.1c0.5-7.4,1.4-14.7,3.1-21.9c1.7-7.9,4.3-15.7,7.5-23.1
		c10.6-24.7,28.9-45.9,51.3-60.5C85.9,11,112.6,2.8,139.6,2.2L139.6,2.2z"/>
	<path class="st0" d="M138.3,4c26.4-1,53.1,5.5,76.1,18.6c20.9,11.8,38.7,29.1,50.8,49.8c12.1,20.4,18.4,44.3,18,68
		c-0.3,15.2-3.2,30.3-8.7,44.4c-5,12.9-12,24.9-20.7,35.6c-18.4,22.8-44.3,39.4-72.6,47c-16.2,4.5-33.3,5.9-50,4.6
		c-23.8-1.9-47.2-9.9-67.1-23.1c-19.3-12.7-35.5-30.4-46.2-50.9c-6.7-12.8-11.2-26.7-13.3-41c-3.9-26.5,0.6-54.1,12.9-77.8
		c13.9-27.3,37.6-49.4,65.4-62.1C100.3,9.1,119.2,4.6,138.3,4L138.3,4z"/>
	<path d="M86.2,19.4c17.9-7.9,37.4-12,57-12c24.1-0.1,48.1,6.1,69.1,18c19.3,10.9,35.9,26.4,47.7,45.2c12.3,19.3,19.3,42,19.6,64.9
		c0.4,16.6-2.5,33.3-8.6,48.7c-5.6,14.3-13.8,27.5-24,38.9c-3,3.3-5.9,6.5-9.3,9.4c-0.2,0.2-0.5,0.4-0.7,0.7
		c-10.8,10-23.3,18-36.6,23.9c-17.1,7.6-35.7,11.7-54.4,12c-23,0.5-46.2-4.7-66.7-15.3c-22.4-11.4-41.7-29.1-54.6-50.8
		c-11.7-19.5-18-42.3-17.9-65c0-11.5,1.6-23,4.8-34c5.5-19.6,16-37.8,29.9-52.7C54,37.7,69.4,26.9,86.2,19.4L86.2,19.4z"/>
	<g>
		<path class="st0" d="M131.6,19.4c0.6-0.7,1.3-1.3,2-1.9c2.4,4.5,4.5,9.2,7,13.7c0.5,1,1.6,1.2,2.4,1.6c0.1,0.1,0.2,0.4,0.2,0.5
			c-2.6,0-5.2,0.5-7.9,0.4c0.6-0.4,1.2-0.8,1.8-1.2c0.1-1.8-1-3.2-1.7-4.7c-1.8-0.1-3.6,0.2-5.4,0.3c-0.5,1.4-1.1,3-0.8,4.5
			c0.5,1.2,1.9,1,2.9,1.2c-0.3,0.7-1.3,0.5-1.9,0.6c-1.8,0-3.6,0.4-5.4,0.3c0.5-0.9,1.8-0.9,2.1-1.8c1-2.4,1.7-5,2.6-7.4
			C130.3,23.4,131.3,21.5,131.6,19.4L131.6,19.4z"/>
		<path class="st0" d="M159,19.8c2.5-1,5.3-0.6,7.6,0.8c0,1.3-0.3,2.5-0.7,3.8c-0.1,0-0.4,0.1-0.5,0.1c-0.2-1.3-0.3-2.8-1.3-3.7
			c-1-0.8-2.4-1.1-3.5-0.4c-1.2,0.8-1.4,2.7-0.5,3.8c1.2,1.5,3.1,2.3,4.5,3.6c0.8,0.8,1.5,1.8,1.5,3c0,1.5-0.8,3-2.2,3.6
			c-2.6,1.4-5.8,0.8-8.4-0.5c-0.4-0.3-1-0.4-1-1c-0.1-1.3,0-2.7,0-4c0.1,0,0.4,0.1,0.5,0.2c0.5,2.1,1.6,4.3,3.7,5.1
			c1.6,0.8,4-0.1,4.1-2.1c0.2-1.7-1.4-2.9-2.6-3.8c-1.5-1-3.1-2-3.9-3.6C155.9,22.7,157.2,20.5,159,19.8L159,19.8z"/>
		<path class="st0" d="M111.9,21.9c2.6-0.5,5.1-1.2,7.7-1.7c0,0.1-0.1,0.4-0.1,0.5c-0.7,0.3-1.3,0.6-1.9,1c-0.7,0.8-0.4,2-0.2,3
			c0.6,2.5,1.2,5,1.8,7.6c0.3,1,0.5,2.1,1.5,2.6c0.8,0.2,1.7,0.1,2.5,0.2c-0.6,0.7-1.6,0.6-2.5,0.8c-2.3,0.4-4.6,1.2-7,1.4
			c0.8-0.7,1.9-0.9,2.6-1.7c0.4-1.5-0.2-3-0.5-4.4c-0.5-2-0.9-4-1.5-6.1c-0.2-0.9-0.6-1.8-1.4-2.3c-0.8-0.2-1.7-0.1-2.5-0.1
			C110.8,22.1,111.4,22.1,111.9,21.9z"/>
		<path class="st0" d="M173.3,20.7c0.6,0.4,1.1,1,1.8,1.2c3.7,1.1,7.3,2.2,11,3.3c0.6,0.2,1.2-0.2,1.8-0.3c-0.3,1.6-0.6,3.2-1,4.7
			c-0.1,0.1-0.3,0.2-0.4,0.2c-0.2-1.2-0.3-2.5-1.1-3.4c-1-1-2.4-1.4-3.7-1.8c-1.2,3.4-2.2,6.8-3.4,10.2c-0.2,1-0.8,2.2,0,3
			c0.8,0.7,1.7,1,2.5,1.6c-0.8,0.1-1.5-0.2-2.2-0.4c-2.2-0.7-4.5-1.4-6.7-2c-0.5-0.1-0.9-0.3-1.2-0.6c1.2-0.2,2.6,0.5,3.7-0.3
			c0.7-0.7,1-1.8,1.3-2.7c1-3.2,2.1-6.4,3.1-9.6c-1.5-0.5-3.2-1-4.7-0.4c-1.1,0.4-1.7,1.5-2.7,2.1C171.7,23.8,172.6,22.3,173.3,20.7
			L173.3,20.7z"/>
	</g>
	<path d="M132,21.3c1.1,1.6,1.9,3.4,2.7,5.2c-1.4,0.2-2.9,0.4-4.3,0.4C130.9,25,131.5,23.1,132,21.3z"/>
	<path class="st0" d="M101,25.2c1.7-0.6,3.3-1.4,5-1.8c-0.4,0.5-0.9,1-1.3,1.5c-0.3,1,0.1,2,0.5,2.9c1.2,2.9,2.4,5.7,3.6,8.6
		c0.3,0.9,0.9,1.7,0.8,2.7c-0.4,0-0.8,0.2-1.2,0c-3.5-1.7-7-3.2-10.5-4.7c-1.6-0.7-3-1.5-4.7-2c0.6,2.3,1.7,4.3,2.7,6.5
		c0.5,1,0.9,2.3,2,2.8c1,0.1,2,0,3,0c-0.6,0.7-1.5,0.8-2.3,1.2c-1.7,0.5-3.2,1.4-4.9,1.7c0.6-0.9,2.1-1.4,1.9-2.7
		c-0.1-1-0.6-2-0.9-3c-0.8-1.9-1.6-3.8-2.4-5.7c-0.5-1-1.1-2-2.2-2.3c-0.8-0.1-1.5-0.1-2.3-0.2c1.5-1.1,3.3-1.4,5-2.1
		c3.1,1.6,6.3,3.1,9.4,4.5c1.7,0.7,3.2,1.6,4.9,2.2c-0.4-1.6-1.3-3.1-1.9-4.7c-0.7-1.3-1-2.8-2-3.9c-1.1-1.1-2.6-0.4-3.9-0.3
		C99.5,25.6,100.3,25.4,101,25.2z"/>
	<path class="st0" d="M197.5,30.7c0.9-0.3,1.8-0.4,2.8-0.7c-0.3,5-1.1,10-1.4,15.1c-0.2,1.3,0.9,2.1,1.4,3.1
		c-1.5-0.4-2.7-1.2-4.1-1.8c-1.1-0.5-2.3-0.9-3.2-1.8c0.9-0.2,2.2,0.5,2.7-0.6c0.6-1.4,0.5-3,0.6-4.5c-1.5-0.7-3.1-1.5-4.6-2.2
		c-0.9,0.8-1.8,1.6-2.6,2.5c-0.5,0.5-0.6,1.2-0.4,1.9c0.6,0.6,1.3,1.1,1.8,1.7c-1.3-0.3-2.5-1-3.7-1.6c-1-0.5-2.2-0.9-3-1.7
		c1-0.1,2.1,0.2,3-0.5c2.5-2,4.9-4,7.4-6C195.3,32.8,196.5,31.9,197.5,30.7L197.5,30.7z"/>
	<path d="M194.7,34.5c0.8-0.6,1.4-1.5,2.3-1.8c-0.3,1.9-0.3,3.8-0.6,5.7c-1.4-0.4-2.6-1.1-3.9-1.7C193.1,35.7,194,35.1,194.7,34.5
		L194.7,34.5z"/>
	<g>
		<path class="st0" d="M75.6,36c0.4,0.2,0.9,0.5,1.3,0.7c3.4,2.4,6.9,4.8,10.3,7.2c0.7,0.5,1.4,1,2.3,1.3c0.9,0.1,1.7-0.1,2.6-0.1
			c-1.1,1.1-2.5,1.7-3.8,2.5c-1.1,0.6-2,1.4-3.2,1.8c0.3-0.8,1.1-1.3,1.1-2.2c-1-1.4-2.5-2.3-3.9-3.2c-1.4,0.9-2.9,1.7-4.3,2.7
			c0,1.5,0.5,3.1,1.4,4.3c1.1,0.9,2.3-0.2,3.5-0.3c-0.7,0.9-1.7,1.3-2.7,1.9c-1.2,0.7-2.4,1.6-3.7,2.1c0.3-0.9,1.2-1.8,1-2.8
			c-0.4-2.5-0.9-5-1.4-7.6c-0.4-2-0.6-4-1.2-5.9C75.1,37.8,75.4,36.9,75.6,36z"/>
		<path class="st0" d="M207.9,40.2c0.8-1.6,2.3-2.6,3.4-3.9c0.4,0.7,0.7,1.4,1.4,1.8c2.9,2,5.8,4,8.6,6c0.6,0.5,1.5,0.6,2.2,0.6
			c-0.8,1.5-1.6,3.2-2.8,4.5c0.1-1.3,0.7-2.7,0-3.9c-0.7-1.1-1.8-2.1-3-2.7c-2.2,2.8-4.3,5.7-6.5,8.6c-0.7,0.9-1.4,2-0.9,3.1
			c0.5,0.7,1.3,1.2,1.7,2.1c-0.5-0.1-0.9-0.3-1.3-0.6c-2.1-1.5-4.2-2.9-6.3-4.4c-0.4-0.3-0.7-0.6-1-1c1.1,0.2,2,1,3.1,0.9
			c1-0.2,1.6-1.1,2.2-1.8c2.2-2.8,4.3-5.7,6.5-8.5c-1.3-1.1-2.9-2.1-4.7-1.9C209.7,39.4,208.9,39.9,207.9,40.2z"/>
		<path class="st0" d="M136.5,38.6c14.2-0.9,28.6,1,42,5.6c22,7.5,41.5,22.6,54,42.3c9.3,14.6,14.6,31.7,15.1,49
			c0.1,2.1,0.1,4.2,0,6.2c-0.6,21.5-8.9,42.5-22.6,58.9c-12.8,15.4-30.1,26.9-49.2,32.8c-25.8,8.2-54.6,6.2-79-5.6
			c-11-5.3-21.1-12.5-29.7-21.3c-15.6-16-25.8-37.4-27.7-59.8c-0.4-3.7-0.3-7.5-0.3-11.3c0.3-16.4,5.2-32.6,13.6-46.6
			c8.6-14.5,21-26.7,35.5-35.4C102.9,44.7,119.6,39.6,136.5,38.6L136.5,38.6z"/>
	</g>
	<path d="M133.3,40c11-0.9,22.1-0.4,32.8,2c11.9,2.6,23.3,7.2,33.6,13.7c10.5,6.6,19.8,15.1,27.2,25c8,10.6,13.9,22.9,16.9,35.9
		c4.8,20.5,2.6,42.6-6.3,61.7c-8.4,18.3-22.7,33.8-40,44c-19.2,11.5-42.1,16.5-64.4,14.3c-13.5-1.3-26.8-5.1-38.8-11.4
		c-21.7-11.2-39.4-30.5-48-53.4c-4-10.8-6.2-22.3-6-33.9c-0.1-7,0.7-14,2.3-20.8c4-17.5,13.1-33.7,25.6-46.5
		c14.1-14.3,32.4-24.4,52-28.6C124.7,41.1,129,40.5,133.3,40L133.3,40z"/>
	<path d="M76.2,40c1.8,0.9,3.3,2.1,5,3.3c-1.1,0.9-2.4,1.7-3.7,2.4C77,43.8,76.5,41.9,76.2,40z"/>
	<g>
		<path class="st0" d="M65.5,44c1-0.8,1.9-1.8,3.1-2.4c-0.8,1.4-1,3-0.5,4.5c1.1,3.4,2.3,6.9,3.4,10.3c0.3,1.1,0.9,2.1,0.9,3.3
			c-0.3,0-0.7,0-1,0c-4.6-2.1-9.2-4.3-13.8-6.2c-1.1-0.5-2.2,0-3.3,0.1c0.7-1.1,1.9-1.7,2.8-2.5c1.2-0.9,2.2-2.1,3.6-2.8
			c-0.3,0.8-0.8,1.4-0.9,2.2c-0.1,0.6,0.6,0.8,1,1.1c1.8,1,3.7,1.8,5.5,2.7c1.4,0.6,2.7,1.3,4.1,1.8c-0.3-1.6-1-3-1.5-4.5
			c-0.6-1.6-1.1-3.3-2-4.8c-0.4-0.5-0.8-1.2-1.6-1.1c-0.9,0.1-1.7,0.7-2.5,1C63.5,45.5,64.6,44.9,65.5,44L65.5,44z"/>
		<path class="st0" d="M226.9,48.7c0.9,0.4,1.6,1.2,2.3,2c2.6,2.5,5.2,5,7.7,7.6c-1.1,0.8-2.1,1.9-3.4,2.4c0.4-1.1,1.5-2.2,0.8-3.4
			c-0.8-1.5-2.1-2.8-3.5-3.7c-1.4,1.4-2.9,2.7-4.3,4.1c1,1.1,2,2.3,3.3,2.9c0.9,0.2,1.9-0.1,2.8-0.3c-1.4,1.4-2.8,2.8-4.4,4.1
			c0.1-0.8,0.5-1.5,0.5-2.3c-0.6-1.4-1.8-2.3-2.8-3.2c-0.4-0.4-0.7,0.2-1,0.4c-1.1,1.1-2.5,2.1-3.2,3.5c-0.2,0.9,0.4,1.7,0.9,2.3
			c1,1.2,2.5,2.2,4.2,2c1.2,0.1,2.3-0.7,3.5-0.9c-0.4,0.9-1.2,1.3-2,1.9c-0.8,0.5-1.5,1-2.4,1.3c-2.1-2-4.2-4.2-6.4-6.2
			c-1.2-1.3-2.7-2.3-3.6-3.8c1.2,0.4,2.2,1.6,3.5,1c1.9-1.3,3.4-3,5.1-4.6c1.3-1.2,2.8-2.4,3.7-4C228.2,50.6,227.2,49.8,226.9,48.7
			L226.9,48.7z"/>
		<path class="st0" d="M46.8,61.8c1-1,1.7-2.3,3-3c-0.3,1.1-1.3,2.2-0.7,3.3c1,1.4,2.5,2.3,3.8,3.4c2,1.6,3.9,3.4,6,4.9
			c1.6-1.3,3.1-2.9,3.5-4.9c0.3-1.7-0.8-3.2-0.9-4.9c1.4,1.3,2.3,3.1,3.3,4.8c-2.4,2.6-4.7,5.3-7.1,7.9c-0.7,0.8-1.3,1.8-2.3,2.2
			c0.2-0.8,0.8-1.5,0.9-2.3c0.1-0.9-0.7-1.5-1.2-2.1c-1.8-1.6-3.8-3.1-5.6-4.7c-0.9-0.7-1.7-1.5-2.8-1.9c-1.3-0.3-2.1,0.9-3.1,1.3
			C44.2,64.3,45.7,63.2,46.8,61.8z"/>
		<path class="st0" d="M39.4,71.1c0.6-0.9,1.1-1.9,1.9-2.6c-0.2,1.4-0.6,3,0.1,4.4c0.8,1.4,1.7,2.8,2.5,4.3c0.5,0.8,0.9,1.6,1.7,2.1
			c1.2,0.8,2.4,1.5,3.8,2c1.4,0.3,2.1-1.3,3.3-1.8c-0.9,1.9-2.2,3.5-3.2,5.2c-0.7,1-1.2,2.3-2.2,3c0.1-1.1,0.9-2.1,0.7-3.3
			c-0.9-1.3-2.4-2-3.8-2.7c-1.7-0.4-3.6-0.4-5.3-0.6c-1.3-0.2-2.5-0.3-3.8-0.2c-1,0.2-1.8,1-2.8,1.4c0.5-1.3,1.4-2.4,2.1-3.5
			c0.8-1.1,1.3-2.4,2.4-3.3c0,0.7-0.2,1.4-0.2,2.1c1.1,0.6,2.4,0.7,3.6,0.8c1.3,0.1,2.7,0.3,4,0.4c-0.9-1.5-1.9-3.1-3-4.5
			c-0.4-0.4-0.7-1-1.4-1c-0.8-0.1-1.4,0.6-2.2,0.8C38.1,73,38.8,72.1,39.4,71.1L39.4,71.1z"/>
		<path class="st0" d="M131.6,71.3c1.4-0.1,2.8-0.5,4.1-0.8c1.6,0.8,3.1,1.8,4.8,2.7c-0.4,0.1-0.8,0.3-1.3,0.4
			c-0.1,0.9-0.1,1.8-0.2,2.7c-0.6,0.8-1.4,1.5-2.1,2.3c0.2-1.1,1.3-1.6,1.8-2.5c0-1.1-0.1-2.3,0.7-3.2c-1-0.6-2.1-1.2-3.2-1.7
			c0,0.3-0.1,0.9-0.1,1.2c-0.5-0.4-0.9-0.8-1.3-1.2c-1.1,0.1-2.2-0.1-3.2,0.5c0,0.3,0,0.8,0,1c0.7-0.2,1.4-0.3,2.1-0.3
			c0,0.5-0.1,1-0.2,1.5c0.9,0.3,1.8,0.6,2.7,1c0,0.1,0,0.4-0.1,0.6c-1.2,0.9-2.7,1.4-3.7,2.5c-0.7,0.6-1.2,1.5-1.1,2.5
			c0.4,0.2,0.9,0.5,1.3,0.7c1.1,0,2.3-0.3,3.4-0.4c0.1,0.2,0.2,0.4,0.3,0.6c-1.3,0.3-2.7,0.5-4,0.1c-0.4-0.1-0.7-0.1-1.1-0.1
			c0,0.4,0,0.8,0,1.2c0.5,0.1,0.9,0.2,1.4,0.4c-0.5,0.4-1.1,0.9-0.9,1.7c2.1,0.3,4.3,0.2,6.4-0.2c-0.4,0.6-1.1,0.9-1.8,0.9
			c-1.2,0.1-2.4,0.2-3.5-0.2c0,0.6-0.1,1.2,0.4,1.6c1.9,0,3.9,0.3,5.6-0.4c0.1,0.1,0.4,0.2,0.5,0.3c0,0.2-0.1,0.5-0.2,0.7
			c-1.6,0.1-3.2-0.1-4.7,0.1c-0.1,0.1-0.4,0.3-0.6,0.3c0.4,0.4,0.8,0.8,1.2,1.1c1.5-0.4,3.1-0.3,4.7-0.3c0.5,0,1.1-0.1,1.6,0.2
			c-0.5,0.6-1.3,0.4-2,0.5c-1.1,0-2.3,0-3.4,0c0.1,0.4,0.3,0.9,0.4,1.3c2,0,4-0.1,6,0c0,0.2,0,0.5-0.1,0.7c-1.5-0.1-3.1,0.2-4.6-0.4
			c-0.2,1.3,0.9,2.2,1.7,3.1c0.3-0.3,0.6-0.7,0.9-1c0.4,0.6,0.9,1.1,1.4,1.6c0.3-0.2,0.6-0.3,0.9-0.5c0.5,0.3,0.9,0.6,1.4,0.8
			c0.1-1.6-0.2-3.1-0.8-4.5c1.2,1.1,2.3,2.4,3.5,3.4c0.4,0.4,1,0.2,1.5,0.2c0.2-1-0.6-1.7-1.3-2.3c-1.6-1.5-3.2-3.1-4.8-4.5
			c-0.6-0.4-0.6-1.2-0.6-1.9c1.4-0.2,2.3-1.3,3.4-2c0-0.3,0-0.6,0-0.9c0.3,0.2,0.5,0.3,0.8,0.5c0.3-0.5,0.6-1,0.9-1.4
			c-0.4-0.6-0.9-1.1-1.6-1.5c-0.8,0.7-1.4,1.6-2.1,2.3c-0.8,0.6-1.7,1.2-2.6,1.7c0-0.2,0.1-0.5,0.1-0.7c1.6-0.8,2.5-2.4,4-3.4
			c-0.2-0.6-0.4-1.2-0.8-1.7c-1.3,1-2.4,2.4-3.5,3.7c-0.3,0.4-0.7,0.4-1.1,0.6c0.8-0.9,1.6-1.9,2.4-2.8c0.8-1.1,0.9-2.5,1.2-3.8
			c3.6,3.7,7.1,7.6,10.7,11.3c0.1-0.2,0.4-0.5,0.5-0.6c1.1,1,2.2,2.1,3.4,3c0.9,0.7,2,1.3,2.7,2.3c-0.3,0.2-0.7,0.4-1,0.6
			c-1-0.4-1.9-1.1-2.9-1.5c0.7,1.2,2.1,1.9,2.6,3.2c-0.2,0.1-0.7,0.4-0.9,0.5c-0.9-0.6-1.7-1.3-2.5-2c-0.7-0.6-1.7-0.2-2.4-0.8
			c-2.1-1.7-4-3.5-6.2-5c-0.6-0.5-1.4-0.4-2.2-0.4c0.9,1.4,2.2,2.4,3.3,3.6c1,0.9,1.8,1.9,2.9,2.7c2.2,1.4,3.9,3.4,5.6,5.4
			c0.3,0.3,0.2,0.8,0.2,1.2c-0.6,0-1.2-0.3-1.8-0.4c-1.3,0.1-2.6,0.1-3.9,0.1c-1.5-1-2.4-2.8-3.9-3.7c-0.1,1.7-1,3.2-2.1,4.5
			c0.5,0.1,1,0.3,1.5,0.4c0.6,0.4,0.8,1.2,1.1,1.8c-1.3,0.2-2.3-0.9-3.5-1.2c-0.3,0.5-0.6,1-0.9,1.6c-0.1-0.1-0.3-0.4-0.3-0.5
			c-0.7-1.7-3.3-1.8-4.2-0.3c-0.3,0-0.5-0.1-0.8-0.1c0-0.4,0.1-0.8,0.1-1.1c-0.8,0.2-1.6,0.5-2.5,0.5c0.1-0.2,0.3-0.6,0.3-0.7
			c0.2-0.4,0.3-0.8,0.7-1c1.1,0.1,2.6,0.8,3.2-0.5c1-1.1,0.1-2.4-0.5-3.4c-0.6-0.9-0.9-2-1.3-3c-0.6-0.6-1.2-1.2-2-1.6
			c-1.4-0.1-2.7-0.3-4-0.8c0.3,1.8,1.6,3.9,0.3,5.6c-0.6,0.6-0.4,1.4-0.4,2.2c0.1,1.2-0.6,2.2-1.1,3.3c-0.2,0-0.5,0.1-0.7,0.1
			c0.1-1.8-0.2-3.7-0.6-5.4c-0.2-0.4-0.6-0.6-0.9-0.9c0.2-0.8,0.4-1.5,0.7-2.3c0.4-1.3,0.1-2.7-0.1-4.1c-0.5-2.7-0.9-5.5-1.4-8.2
			c-0.2-1.3-0.3-2.6-0.1-3.9c0.5,1.7,0.8,3.6,1.9,5.1c0.3-0.2,0.6-0.4,0.9-0.6c0.2-0.3,0.4-0.5,0.5-0.8c0.7-1.1,1.5-2.1,2.6-2.9
			c0.9-0.7,2.2-0.9,2.8-2c-1.1-0.5-2.2-0.9-3.4-1.2c0.1-0.5,0.4-0.9,0.6-1.4c-0.6,0.2-1.1,0.4-1.7,0.7
			C131.3,72.6,131.4,71.9,131.6,71.3L131.6,71.3z"/>
		<path class="st0" d="M247,70.4c0.4,0.4,0.8,0.9,1.1,1.4c1.1,2,2.4,3.9,3.5,5.9c0.2,0.3,0.2,0.6,0.2,0.9c-0.9-0.7-1.7-2.1-3.1-1.8
			c-1.5,0.4-2.8,1.4-4.2,2.1c-1.7,1-3.6,1.7-4.9,3.3c-0.8,0.9-0.7,2.2-0.5,3.3c0.5,1.8,1.6,3.6,3.5,4.1c1.4,0.3,2.7-0.3,3.9-0.9
			c1.7-0.9,3.4-2,5.1-3c0.8-0.5,1.8-1,2.1-2c0-1-0.5-1.9-0.5-2.9c0.9,0.8,1.4,1.9,2,2.9c0.6,1.1,1.4,2.1,1.8,3.3
			c-0.8-0.3-1.4-0.8-2.2-1.1c-1.9,0.3-3.5,1.4-5.2,2.2c-2.1,0.9-4,2.4-6.4,2.4c-2.7-0.2-4.6-2.4-5.7-4.7c-0.8-1.5-1-3.2-0.6-4.9
			c0.5-1.3,1.7-2.1,2.8-2.8c1.8-1,3.7-2,5.5-3c0.8-0.5,1.7-1,2.3-1.8C247.7,72.4,247.1,71.4,247,70.4L247,70.4z"/>
		<path class="st0" d="M125.7,73.2c1-0.2,1.9,0.2,2.5,1c1.2,1.8,1.3,4,2.5,5.8c-0.2,0.3-0.4,0.5-0.5,0.8c-0.8-1.9-1.3-3.9-2.2-5.7
			c-0.3-0.8-1.1-1.2-1.9-1.3c-0.2,2.1-0.2,4.2,0.4,6.3c0.9,3.3,1.5,6.6,2,9.9c0.1,0.9,0.3,1.7,0.6,2.5c-0.2,0.8-0.5,1.5-0.7,2.3
			c-0.4-4.2-1.1-8.4-2-12.5C125.7,79.3,124.7,76.2,125.7,73.2z"/>
	</g>
	<path d="M126.1,73.7c0.8,0.1,1.6,0.5,1.9,1.3c0.9,1.9,1.4,3.9,2.2,5.7c-0.3,0.2-0.6,0.4-0.9,0.6c-1.1-1.5-1.3-3.4-1.9-5.1
		c-0.1,1.3,0,2.6,0.1,3.9c0.4,2.7,0.8,5.5,1.4,8.2c0.2,1.3,0.6,2.8,0.1,4.1c-0.3-0.8-0.5-1.7-0.6-2.5c-0.5-3.3-1.1-6.6-2-9.9
		C125.9,78,125.9,75.8,126.1,73.7z"/>
	<g>
		<path class="st0" d="M132.9,83.1c1.5,0.1,2.9-0.4,4.4-0.3c-1.2,1-2.9,0.7-4.3,0.7C133,83.4,132.9,83.2,132.9,83.1z"/>
		<path class="st0" d="M29.9,87.5c0.3-0.3,0.6-0.5,1-0.4c0.9,0.3,1.8,0.7,2.6,1.1c0.4,0.2,0.6,0.4,0.7,0.8c-1.3-0.1-2.7-0.5-4,0.1
			c-1.1,0.6-1.9,1.9-1.6,3.2c0.5,1.3,2.1,2.1,3.5,1.6c2.2-0.8,3.7-2.8,5.8-3.7c1.8-0.8,4.2-0.2,5.2,1.5c1.3,2,0.7,4.6-0.4,6.5
			c-0.7,1.1-1.5,2.4-2.8,3c-1.4-0.4-2.9-0.5-4.2-1.1c0-0.1-0.1-0.3-0.2-0.4c1.9-0.1,3.9-0.1,5.5-1.3c1.2-0.9,2-2.5,1.4-4
			c-0.6-1.4-2.5-1.7-3.8-1.2c-2,0.9-3.4,2.7-5.4,3.6c-2.5,1.2-5.6-0.9-5.7-3.6C27.4,91.1,28.4,89,29.9,87.5z"/>
		<path class="st0" d="M259,91.3c0.8,1.6,1.3,3.3,1.8,5.1c-2.1,3.1-3.9,6.3-5.7,9.5c-0.7,1.3-1.6,2.5-2.2,3.9c2.1-0.6,4-1.3,6.1-2
			c1.3-0.5,2.8-0.8,3.7-1.9c0.2-1,0-2.1,0.1-3.1c0.6,0.6,0.8,1.5,1.1,2.3c0.5,1.5,1.1,2.9,1.4,4.4c-0.6-0.4-1-1-1.7-1.3
			c-0.9-0.1-1.8,0-2.6,0.3c-3.3,1-6.5,2-9.7,3.1c-0.9,0.3-1.8,0.7-2.7,0.3c0-0.2,0-0.5,0.1-0.6c2.8-4.8,5.5-9.6,8.1-14.5
			c-2.4,0.3-4.6,1.4-6.8,2.1c-1.1,0.5-2.5,0.7-3.1,1.9c-0.2,0.9,0,1.9-0.1,2.8c-0.7-0.6-0.9-1.6-1.2-2.4c-0.5-1.6-1.1-3.2-1.6-4.8
			c1,0.6,1.5,2.2,2.9,2c2.1-0.2,4.1-1.2,6.2-1.8c1.6-0.6,3.5-0.8,4.8-1.9C258.9,93.8,258.8,92.4,259,91.3z"/>
		<path class="st0" d="M81.6,92.9c0.6-0.5,1.4-0.6,2.1-0.8c-1.6,1-1.8,3.1-1.4,4.8c0.6-1,0.8-2.3,1.6-3.2c0.4-0.6,1.2-0.6,1.8-0.8
			C85,93.7,84.7,94.9,85,96c1.3-0.7,2.8-0.7,4.2-1c-0.6,0.9-1.6,1.2-2.5,1.6c0,0.2,0.1,0.5,0.2,0.7c1.3,0.1,2.3-0.8,3.5-0.9
			c-0.7,0.4-1.4,0.9-1.8,1.6c0.1,0.2,0.4,0.6,0.6,0.8c0.8-0.1,1.5-0.2,2.3-0.3c-0.9,1.1-2.3,1.3-3.7,1.2c1,1.6,2.9,1.8,4.2,3
			c0.7,0.6,1.6,0.8,2.4,1.2c0,1.2,0.1,2.5,0,3.7c-1.3,0.1-2.4-0.6-3.6-1.2c0,0.2,0,0.6,0,0.8c0.6,0.4,1.2,0.8,1.8,1.1
			c0,0.3-0.1,0.7-0.1,1c-0.8-0.1-1.6-0.3-2.4-0.5c-0.3,0.7-0.5,1.5-0.4,2.4c1.4,0.4,2.8,0.8,4,1.7c1.1,0.9,2.9,0.6,3.9,1.8
			c0.6,0.6,1.3,1.1,2,1.5c1,0.6,1.5,1.6,2.2,2.4c0.9-0.9,1.8-1.8,2.8-2.6c0.6-0.5,1.4-0.9,1.7-1.7c0.5-0.9,0.9-2,1.9-2.5
			c1.2-0.4,2.6-0.2,3.8,0.2c1.5,0.5,3.2,0.2,4.8,0.2c1.5-0.2,2.6,0.9,4.1,0.8c0.2,0,0.5,0,0.7,0.1c1.1,0.3,2.2,0.9,3.3,1.2
			c1.8-0.3,3.6-0.7,5.4-0.1c-0.2-2.8,1-5.8,3.4-7.4c2.4-1.5,5.4-1.3,8.1-0.8c0.2-1.1,0.9-2.3,2.1-2.2c1.2,0,1.7,1.2,1.8,2.2
			c2.7-0.6,5.7-0.8,8.2,0.8c2.4,1.6,3.5,4.6,3.4,7.4c1.9-0.7,3.8-0.2,5.7,0.2c1-0.5,2-1.1,3.1-1.4c-0.3-1.3-0.5-2.6-1.1-3.7
			c-1-0.9-2.4-0.4-3.6-0.5c-0.7-1.2-1-2.5-1.9-3.6l-0.2-0.2c1.3,0.8,1.4,2.4,2.1,3.6c1.2,0.1,2.7-0.3,3.7,0.6
			c0.8,1.1,0.8,2.6,1.3,3.8c1.3,0.1,2.4-0.2,3.6-0.6c2-0.2,4.1,0.4,6-0.2c1.2-0.4,2.6-0.6,3.8-0.1c1.4,0.8,1.5,2.8,2.8,3.7
			c1.3,1,2.5,2,3.5,3.2c0.6-0.9,1.2-1.9,2.2-2.5c0.9-0.5,1.7-1.1,2.5-1.8c0.9-0.8,2.3-0.5,3.2-1.2c1.3-1,2.9-1.3,4.3-1.8
			c-0.1-0.8-0.3-1.5-0.5-2.2c-0.8,0.1-1.6,0.3-2.4,0.4c0-0.4-0.3-0.9,0-1.2c0.7-0.5,1.8-0.7,1.6-1.8c-1.2,0.4-2.3,1.3-3.7,1
			c0-1.1,0-2.1,0.1-3.2c0-0.5,0.5-0.8,0.9-0.9c1.6-0.4,2.8-1.6,4.1-2.5c1.1-0.9,2.3-1.6,3.1-2.7c-1,0.2-1.9,0.7-2.9,1.1
			c0.6-0.6,1.3-1.1,1.6-2c-0.9-0.1-1.9,0.1-2.6-0.6c1.1,0.1,2.3,0.4,3.2-0.5c-0.5-0.5-1-0.9-1.3-1.6c1.3,0.3,2.5,0.7,3.8,0.8
			c0.2-0.9,0.1-1.8-0.5-2.5c1.1,0.1,1.8,0.9,2.6,1.6c0-0.7-0.2-1.4-0.4-2c1.2,0,1.8,1,2.3,2c0.5-0.4,1-1,1.7-1.2
			c0.7,0.4,1.3,0.8,2.1,0.7c-0.2,0.3-0.4,0.6-0.6,0.9c1.1,0.1,2.3,0.1,3.4,0.2c-0.1,0.5-0.2,1-0.2,1.4c0.4,0.1,0.8,0.2,1.2,0.3
			c-0.2,0.4-0.4,0.8-0.6,1.2c0.5,0,1,0.1,1.4,0.1c0,0.5,0,1,0,1.6c0.8,0.5,1.7,1,2.1,1.9c0.5,1,1,2,1.5,3c-0.7-0.4-1.5-0.8-2.3-0.8
			c0.7,0.8,1.7,1.2,2,2.3c0.4,1.2,0.4,2.5,0.2,3.8c-0.3-0.9-0.5-1.8-0.8-2.7c-0.3,0-0.6-0.1-0.9-0.1c0.3,2.6,1.4,5.2,0.9,7.9
			c-0.6,0.9-1.3,1.7-1.7,2.7c-0.1,1.1,0.1,2.3-0.6,3.3c-0.2-0.9-0.3-1.9-0.4-2.8c-0.1,0-0.4-0.1-0.6-0.2c0.2,1.4,0,3.2-1.6,3.8
			c0-0.7,0.1-1.4,0.1-2c-1.1,1.6-1.1,3.7-1.6,5.5c-0.3-0.5-0.6-1.1-0.9-1.6c-0.8,1.1-1.2,2.4-1.6,3.7c-0.4-0.9-0.4-1.9-0.8-2.8
			c-0.5,0.6-0.8,1.3-0.5,2c0.3,0.8,0.8,1.4,1.3,2.1c-1.5-0.6-2.8-1.7-3.5-3.2c-0.6,0.8-0.5,1.9-0.6,2.8c-0.6-0.8-0.9-1.7-1.1-2.6
			c-0.8,0.4-0.3,1.4,0,2c1.7,2.7,3.7,5.3,6.5,6.9c2.2,1.3,4.4,3,5.6,5.4c0.3,0.5,0.7,1.3,1.4,1.3c0.6,0.1,1-0.5,1.2-1.1
			c0.4-1.2,0.2-2.7,1-3.8c1.5-2.9,6.3-2.1,7.2,0.9c0.6,1.6,0.4,3.5,1.4,4.9c0.8,1.1,2.2,0.9,3.3,1.4c0.7,1,0.9,2.3,1.2,3.4
			c0.2,1.7,1.9,2.9,2.1,4.7c0,1.4,0.4,2.7,0.4,4c-0.3,0.2-0.6,0.4-0.9,0.7c-0.1,0.7,0,1.4-0.5,1.9c-0.3-1-0.2-2.2-1.2-2.8
			c-0.4-0.4-1.1-0.3-1.6-0.4c0.3,0.8,0.7,1.6,0.8,2.5c-0.1,0.6-0.2,1.2-0.4,1.7c1.2,0.3,2.4,0.3,3.5,1c0.5,0.5,0.3,1.2,0.3,1.8
			c-0.4-0.6-0.6-1.2-1.2-1.6c-1-0.5-2.1-0.4-3.1-0.3c0.2,0.4,0.4,0.7,0.6,1.1c-0.7,0-1.4,0.1-1.9-0.4c-0.3-1.4,0.4-2.8,0.3-4.2
			c-0.3-0.7-0.4-1.7-1.3-1.8c-0.9-0.1-1.3-1.1-1.7-1.7c-0.9-1.6-2.4-2.6-3.8-3.8c-1.5-1.3-2.2-3.6-1.3-5.4c0.5-1.3,0.3-3.2-1.1-3.7
			c-0.8,1-1.9,1.8-3.1,2.4c-0.1,1.5-0.2,3.1-0.5,4.6c-0.3,1.8-1.7,3.1-2.1,4.8c-0.5,1.9-0.3,4.1,1,5.8c0.6,0.8,1.6,1.1,2.4,1.7
			c0.9,1-0.2,2.2-0.2,3.4c0,2.2-0.1,4.4,0.3,6.5c0.2,1.1,0.4,2.2,0.3,3.3c-0.6,0.3-1.2,0.6-1.9,1c0.1,1.1,0,2.2-0.3,3.3
			c0.8-0.1,1.5-0.2,2.3-0.5c-0.1-0.6-0.6-1.3-0.1-1.8c0.4-0.6,1.3-0.5,1.9-0.3c1,0.6,0.7,1.9,0.6,2.8c-0.6,0.7-1.5,1-2.2,1.4
			c0,0.3,0.1,0.7,0.1,1c-0.6,0.1-1.2,0.2-1.9,0.3c0,0.4,0,0.7,0,1.1c-1.2,0.4-2.4,0.4-3.6,0.4c0.1,0.5,0.2,1,0.3,1.5
			c-2.8-0.1-5.5-0.9-7.6-2.8c0,0.6,0,1.2,0,1.8c-1.1,0.2-2.2,0.8-3.3,0.7c-0.5,0-1.1-0.2-1.4,0.3c-0.5,0.4-0.2,1-0.1,1.6
			c0.9,0.2,1.8,0.3,2.7,0.3c0.8,0.1,1.5,0.7,2.3,0.9c0.9,0,1.8-0.5,2.6,0c0.8,0.3,1,1.3,1.3,2c-1-0.2-2-0.6-3-0.3
			c-0.8,0.2-1.4,0.6-2.2,0.7c-1-0.4-1.8-1.1-2.8-1.2c-0.9,0-1.4,0.8-2.1,1.3c-0.6,0.3-1.2,0.3-1.9,0.4c0.2,1.2,0.5,2.6-0.2,3.7
			c-0.5,1.1-1.7,1.6-2.7,2c0.2-0.7,0.5-1.4,0.7-2.2c0.2-1.4-1-2.8-0.6-4.2c0.5-0.8,1.7-1.1,2.2-1.9c0.3-1.2,0-2.4,0-3.6
			c1.1-0.5,2.4-0.8,3.1-1.9c0.5-1.1-0.7-1.7-1.3-2.4c-4.2,4.3-8.7,8.8-14.4,10.9c-3.1,1.2-6.6,1-9.5-0.5c-3.1-1.5-5.3-4.3-6.8-7.3
			c-0.9-0.2-1.7-0.3-2.6-0.3c-2,1.9-3.3,4.4-5.4,6.2c-3.5,3.6-7.6,6.9-12.7,7.9c-5.7,1.1-11.9,0.4-16.8-2.9
			c-2.4-1.4-4.2-3.7-6.2-5.7c-1.8-1.7-2.9-4-4.8-5.5c-1.3,0-2.7,0.1-4,0.5c-1.4,2.7-3.3,5.3-6,6.8c-3.1,1.9-7.1,2.1-10.4,0.8
			c-5.6-2.1-10-6.4-14.3-10.5c-1.1-1.4-2.3-2.7-3.6-3.9c-4.5,2.5-10.1,4.1-15.1,1.9c0.1-0.6,0.2-1.2,0.2-1.8
			c-0.6-0.1-1.4-0.5-1.8,0.1c-0.3,0.7-0.4,1.6,0,2.3c0.8,1,2.3,1,3.5,1.1c-0.4,0.4-0.7,0.7-1.1,1.1c0.8,0,1.6,0.1,2.4,0.1
			c-0.3,0.4-0.5,0.8-0.8,1.3c0.9,0.2,1.7,0.4,2.6,0.3c1.1-0.1,2-0.8,3-1.1c-0.8,0.8-1.7,1.5-2.4,2.4c1.1,0.6,2.4-0.1,3.5-0.3
			c1.7-0.4,3.1-1.6,4.2-3c0,0.9,0,1.9,0,2.8c2.1-0.3,3.8-1.7,5.4-3.1c-0.1,0.6-0.4,1.2-0.3,1.9c0.7,1,2,1.3,3.1,1.7
			c0,1.1-0.2,2.2,0,3.3c0.4,1.1,1.9,1.3,2.5,2.3c0.3,1.1-0.5,2.2-0.5,3.3c-0.2,1,0.4,1.9,0.8,2.9c-1.5-0.3-2.9-1.4-3.3-2.9
			c-0.2-0.8,0-1.7,0.2-2.5c-0.6-0.1-1.3-0.2-1.9-0.4c-0.7-0.5-1.3-1.4-2.3-1.3c-1.1,0.2-1.8,1.1-2.9,1.3c-0.9-0.3-1.8-0.8-2.8-0.8
			c-0.8-0.1-1.5,0.3-2.2,0.6c0.2-0.8,0.3-1.6,1-2.1c1.1-0.8,2.7,0.3,3.8-0.6c1.2-0.8,2.7-0.6,4-1c0.2-0.8-0.1-1.9-1.1-1.8
			c-1.4,0.2-2.8-0.2-4-0.7c0.1-0.6,0.1-1.2,0.1-1.8c-2.1,1.9-4.9,2.8-7.7,2.8c0.1-0.5,0.3-1,0.4-1.5c-1.3,0.1-2.6,0-3.8-0.5
			c0-0.4,0-0.7,0-1.1c-0.6-0.1-1.2-0.1-1.8-0.2c0.1-0.3,0.2-0.7,0.4-1c-0.8-0.3-1.8-0.6-2.4-1.3c-0.2-0.8-0.2-1.7,0-2.5
			c0.6-0.8,1.8-0.8,2.5-0.1c0,0.6,0,1.3,0,1.9c0.8,0.3,1.6,0.4,2.4,0.4c-0.5-1.2-0.7-2.5-0.5-3.8c-0.6-0.4-1.3-0.7-1.9-1.1
			c-0.1-1.8,0.6-3.5,0.7-5.3c0.2-2,0.5-4.1-0.2-6.1c-0.2-0.6-0.3-1.4,0.4-1.8c0.7-0.5,1.5-0.7,2.1-1.4c1.5-1.6,1.8-4,1.3-6
			c-0.3-1.4-1.4-2.5-1.8-3.8c-0.5-1.8-0.4-3.6-0.5-5.4c-0.8-0.3-1.7-0.5-2.2-1.3c-0.5-0.8-1.5-0.9-2.2-1.4c0,0.7,0.1,1.5,0.1,2.2
			c0.7,0.6,1.5,1.1,1.8,1.9c0.6,1.4,0.3,2.9-0.2,4.2c-0.2-0.6-0.1-1.3-0.6-1.6c-0.1,0.7-0.2,1.3-0.4,2c-0.3,0-0.7,0-1,0
			c-1.2,1.1-2,2.6-2.6,4c-0.1-0.6-0.1-1.2-0.2-1.7c-0.8,0.4-0.8,1.4-1,2.2c-0.2-0.2-0.4-0.4-0.7-0.5c0,2.1-1.8,3.6-3,5.1
			c-1,1-0.4,2.8-1.6,3.7c-1.1,0.6-2.8,0.6-3.6-0.5c-0.5-0.8-0.7-1.8-1-2.7c0.7,0.3,1.4,0.7,2.1,1c-0.1-0.9-0.6-1.5-0.9-2.4
			c-0.1-0.5,0-1.1,0-1.6c-0.5,0-1-0.1-1.4-0.1c0.5-0.2,1-0.3,1.3-0.9c0.1-0.8-0.3-1.6-0.2-2.3c0.4-1,1.1-1.8,1.4-2.8
			c-0.5,0.1-1.1,0.3-1.6,0.4c0.5-0.7,1.2-1.2,1.7-2c0.3-1,0.2-2.1,0.9-2.9c1.3-1.5,3.7-1.3,4.7-3c0.7-1.5,0.1-3.2,0.9-4.7
			c0.9-2.8,5.4-3.8,7.2-1.3c0.8,0.9,0.8,2.1,0.7,3.1c-0.1,1.1,0.9,2.6,2.1,2c0.9-0.9,1.3-2.2,2.2-3.1c1.5-1.7,3.5-2.8,5.3-4
			c2.4-1.7,4.3-4,5.7-6.5c0.7-1-0.3-2.4-1.3-2.6c0,0.7,0,1.4,0,2c-1.3-0.5-2.4-1.3-3.7-1.8c0.2,0.6,0.5,1.2,0.9,1.7
			c-1.2-0.5-2.3-1.3-2.8-2.5c-0.2-0.8-1.1-1-1.7-1.3c0.1,0.6,0.2,1.2,0.4,1.9c-1-1-1.8-2.3-1.9-3.8c-0.3,0.2-0.7,0.3-1,0.5
			c-0.7-0.8-0.9-1.8-1.1-2.8c-0.4-0.5-1-0.8-1.2-1.4c-0.1-0.7,0-1.4,0.1-2.1c-1.6-1.2-2.2-3.4-1.9-5.4c0.4-1.9,1.6-3.4,2.4-5.1
			c0.4-0.9,1.5-1.1,2.4-1.4c-0.4-0.8-1.4-0.9-2.1-0.5c-1.4,0.5-1.5,2.2-2.4,3.2c-0.3-1.4-0.1-3,0.7-4.2c0.5-0.8,1.4-1.1,2.1-1.6
			c-0.9-0.5-1.8-1.1-2-2.1c0.5,0.4,1,1,1.7,1c1.1,0.1,2.1-0.5,3.1-0.9c-0.6-0.2-1.3-0.3-1.9-0.5c-0.7-0.3-1-1.1-1.4-1.8
			c1.2,0.8,2.7,1,3.9,0.3c0.8-0.3,1.5-1,2.4-0.9c0.9,0.2,1.8,0.6,2.7,1C80.4,94.9,80.7,93.7,81.6,92.9L81.6,92.9z"/>
	</g>
	<g>
		<path d="M142.9,97.2c0.1,0,0.4-0.1,0.6-0.1c0.3,0.9,0.2,2.2-0.8,2.5c-0.5,0.1-1,0-1.4-0.1c0-0.2,0-0.6,0-0.8
			c0.4-0.1,0.9-0.2,1.3-0.3C142.6,98.1,142.7,97.6,142.9,97.2z"/>
		<path d="M84.3,100.4c0.3-0.9,1.3-0.9,2-0.5c0,0.4-0.1,0.9-0.1,1.3c-0.5,0-1,0-1.5,0L84.3,100.4z"/>
		<path d="M201.9,100.1c0.9-0.5,1.8,0.5,1.4,1.4c-0.6,0.1-1.2,0.1-1.8,0C201.5,101,201.3,100.3,201.9,100.1z"/>
	</g>
	<path class="st0" d="M130.1,101.8c1.7-0.9,3.6-1.3,5.5-1.6c-0.1,0.2-0.3,0.6-0.3,0.7c-0.5,0-0.9,0.1-1.4,0.1
		c0.1,0.2,0.2,0.5,0.3,0.6c1.2,0.1,2.3-0.2,3.5-0.1c0.3,0,0.5,0.1,0.8,0.1c-1.1,0.6-2.3,1.4-3.6,1c-0.9-0.1-1.4-0.9-2-1.4
		c-0.5-0.1-0.9,0.3-1.3,0.6c0.5,0.3,1,0.6,1.5,1c-0.5,0.7-0.9,1.6-1.7,2.1c-1.1,0.4-2.4,0.1-3.5,0.6c-0.7,1-1,2.1-1.5,3.2
		c-1.2,0.2-2.4,0.1-3.5,0.5c-1,1-1,2.6-1.4,4c-0.2,0-0.5,0-0.7-0.1c0.6-1.3,0.7-2.7,1.4-3.9c1-1.2,2.8-0.3,4-1
		c0.6-1,0.6-2.4,1.6-3.1c1.5-0.5,3.7,0.3,4.4-1.6c-1,0-2.1,0.3-2.9-0.5C129.4,102.5,129.7,102,130.1,101.8z"/>
	<path class="st0" d="M146.3,100.2c2.4-0.3,4.9-0.1,7.3,0.2c0.8,0.1,1.3,0.7,1.7,1.2c-0.2,0.3-0.5,0.7-0.7,1c0.5,0.7,0.9,1.6,1.7,2
		c0.9,0.2,1.9,0.1,2.8,0.3l0.2,0.2c-1,0-2.1,0.2-3.1-0.1c-1.2-0.5-1.5-2.1-2.7-2.6c-0.8,0-1.6,0.3-2.4,0.4c-0.8-0.2-1.4-0.8-2.3-1
		c-0.5,0-1,0.2-1.4,0.3C147.1,101.4,146.9,100.7,146.3,100.2z"/>
	<path d="M135.3,100.9c0.9,0.1,1.7-0.3,2.5-0.5c-0.1,0.4-0.1,0.8-0.1,1.1c-1.2,0-2.3,0.2-3.5,0.1c-0.1-0.2-0.2-0.5-0.3-0.6
		C134.4,101,134.8,100.9,135.3,100.9z"/>
	<path class="st0" d="M138.4,101.7c0.9-1.5,3.5-1.4,4.2,0.3C141.2,101.9,139.8,102.1,138.4,101.7z"/>
	<path d="M147.3,100.6c2.2,0.2,4.3-0.1,6.5,0.2c0.5,0,0.7,0.6,1,0.9c-1.6,0.2-3.3,0.2-4.8-0.3c-0.9-0.3-1.8-0.2-2.7-0.1
		C147.3,101.1,147.3,100.8,147.3,100.6L147.3,100.6z"/>
	<path class="st0" d="M23.1,104.1c0.3-1,0.5-2.2,1-3.1c0.2,0.7,0.2,1.4,0.6,2c0.7,0.6,1.7,0.9,2.6,1.1c3.9,0.9,7.8,1.8,11.7,2.7
		c0.1,0.2,0.3,0.6,0.4,0.8c-4.2,2.3-8.4,4.6-12.6,6.9c-0.9,0.6-2,0.8-2.6,1.7c2.3,0.6,4.6,1,6.9,1.5c1.1,0.2,2.2,0.5,3.3,0.2
		c1.1-0.5,1.3-1.8,2.2-2.6c0,1.3-0.5,2.4-0.7,3.7c-0.4,1.3-0.6,2.7-1.1,3.9c-0.2-0.9-0.2-1.8-0.5-2.6c-0.6-0.8-1.6-1.1-2.5-1.3
		c-2.3-0.5-4.5-1-6.7-1.6c-1.1-0.2-2.2-0.6-3.2-0.2c-1,0.3-1.6,1.4-2.4,2c0.3-1.7,0.8-3.4,1.2-5.1c4.6-2.1,8.9-4.7,13.4-6.9
		c0.2-0.1,0.4-0.3,0.5-0.5c-3-0.6-6-1.5-9.1-1.8c-1.8-0.2-2.1,1.8-3.1,2.8C22.3,106.6,22.8,105.3,23.1,104.1L23.1,104.1z"/>
	<g>
		<path d="M143.9,100.9c1.2,0.3,2.3,1.4,3.5,1.2c0.5-0.1,0.9-0.3,1.4-0.3c0.8,0.2,1.5,0.8,2.3,1c0.8,0,1.6-0.3,2.4-0.4
			c1.2,0.5,1.5,2.1,2.7,2.6c1,0.3,2.1,0.1,3.1,0.1c0.9,1,1.2,2.4,1.9,3.6c1.2,0.1,2.6-0.3,3.6,0.5c0.7,1.1,0.8,2.5,1.1,3.7
			c-1.1,0.4-2.1,0.9-3.1,1.4c-1.9-0.3-3.8-0.9-5.7-0.2c0.1-2.8-1-5.8-3.4-7.4c-2.4-1.6-5.5-1.3-8.2-0.8c-0.2-1-0.6-2.3-1.8-2.2
			c-1.3-0.1-2,1.1-2.1,2.2c-2.7-0.5-5.7-0.7-8.1,0.8c-2.4,1.6-3.5,4.6-3.4,7.4c-1.8-0.6-3.6-0.2-5.4,0.1c-1.1-0.3-2.2-0.9-3.3-1.2
			c0.3-1.3,0.4-2.9,1.4-4c1.1-0.4,2.4-0.3,3.5-0.5c0.5-1.1,0.8-2.3,1.5-3.2c1.1-0.4,2.4-0.1,3.5-0.6c0.8-0.5,1.2-1.4,1.7-2.1
			c-0.5-0.3-1-0.6-1.5-1c0.4-0.2,0.8-0.7,1.3-0.6c0.7,0.5,1.1,1.3,2,1.4c1.3,0.4,2.5-0.4,3.6-1c1.4,0.4,2.8,0.2,4.2,0.3
			c0.1,0.1,0.3,0.4,0.3,0.5C143.3,101.9,143.6,101.4,143.9,100.9L143.9,100.9z"/>
		<path d="M82,101.8c1.1,0,1.9,0.9,2.8,1.4c1.3,0.9,2.8,1.7,4,2.7c0,0.2,0,0.6,0,0.8c-2.4-1.1-4.5-2.8-6.8-4.2
			C82.1,102.3,82.1,101.9,82,101.8z"/>
		<path d="M130.1,102.2c0.4,0,0.8-0.1,1.1-0.1c0.1,0.3,0.2,0.5,0.3,0.8c-0.3,0.1-0.6,0.3-0.9,0.4c-0.3-0.1-0.7-0.2-1-0.3
			C129.8,102.8,130,102.4,130.1,102.2z"/>
		<path d="M200.5,105c1.7-0.9,3.2-2.4,5.1-2.9c0,0.2,0,0.6,0,0.8c-2.3,1.4-4.5,3.1-7,4.2C198.4,105.8,199.8,105.6,200.5,105z"/>
		<path d="M89.1,105.5c0.3,0,0.8-0.1,1.1-0.1c-0.4,4.8-1.8,9.6-4.4,13.6c-0.8,1.3-1.8,2.3-2.6,3.6c2.6-0.7,4.8-2.4,6.9-4
			c1.4-1.3,2.9-2.6,3.9-4.2c0.4-0.9,1.5-0.4,2.2-0.2c0.9,0.2,1.9,1.3,1.1,2.2c-1.4,1.9-3,3.7-5.2,4.7c0.4,0.9,1.5,1.9,0.8,2.9
			c-0.4,0.8-1.3,1-2.1,1.2c0.3-1,1-1.8,1-2.9c-0.1-0.7-0.5-1.4-0.7-2.1c0.4-0.3,0.8-0.7,1.2-1c-0.6,0.2-1,0.6-1.4,1.1
			c0.2,0.6,0.6,1.2,0.5,1.8c-1.2,1-2.6,1.6-3.8,2.5c-1,0.7-2.2,1.2-3.4,1.4c-0.4-0.5-0.9-0.9-1.2-1.4c-0.6-0.8-0.4-1.8-0.6-2.7
			C86.5,117.4,88.8,111.5,89.1,105.5z"/>
		<path d="M197.6,105.7c0.2,0,0.5,0,0.7,0c0.4,3.4,1.1,6.8,2.5,9.9c1,2.4,2.5,4.5,4.2,6.5c0.1,0.7-0.1,1.4-0.1,2.1
			c-0.3,0.8-1,1.5-1.6,2.1c-1.2-0.3-2.3-0.6-3.3-1.3c-1.3-1-2.8-1.8-4.1-2.9c0,0.1-0.1,0.4-0.1,0.5c0,0.2-0.1,0.4-0.1,0.6
			c-0.4-0.2-0.7-0.5-1.1-0.7c0.4-0.5,0.8-1,1.1-1.5c-0.6,0-1.2,0.1-1.6-0.4c-1.6-1.4-3.1-3-4.2-4.8c0.4-0.5,0.7-1.1,1.3-1.4
			c0.7-0.3,1.4-0.3,2.1-0.3c1.7,2.7,4.2,4.9,6.8,6.8c1.3,0.9,2.7,1.8,4.3,2.1c-2.2-2.6-4.1-5.5-5.2-8.8
			C198.2,111.4,197.5,108.6,197.6,105.7z"/>
		<path d="M134.8,108c1.7-1,3.8-1.3,5.6-0.7c0.6,0.5,0.8,1.3,1.5,1.8c0.6-0.2,1.2-0.7,1.9-0.7c0.7,0.2,1.3,0.7,2.1,0.4
			c0.4-0.4,0.5-1,0.9-1.4c2.1-0.9,4.6-0.4,6.4,0.9c1.3,1,1.7,2.7,2.1,4.3c0.2,0.7-0.6,1-0.9,1.5c-0.6,0.5-0.2,1.6,0.6,1.6
			c0.7,0.1,1.3-0.4,1.9-0.7c0.1,1.1,0.9,1.9,1.9,2.2c0.4-0.5,0.7-1.1,1.1-1.6c0.6,0,1.3-0.1,1.9,0.3c2.4,1.5,4.3,3.8,5.1,6.5
			c0.5,1.9,0.8,3.9,0.9,6c-1.8,0-3.7,0.1-5.5-0.2c-1.2,0.2-2.4,0.5-3.7,0.1c-1.1-0.3-2.1,0.2-3.2,0.2c-2.2-0.1-4.4,0.2-6.6-0.3
			c-2.6,0.3-5.2,0.4-7.8,0c-1.7,0.4-3.5,0.3-5.3,0.3c-2,0-4,0.2-5.9-0.2c-2,0.3-4.1,0.4-6.1,0.1c-1.2-0.2-2.4,0.2-3.6-0.1
			c0.1-0.3,0.3-0.8,0.4-1c1,0.1,2.1,0.1,3.1-0.1c-1.1-0.1-2.2,0-3.3-0.1c0.3-2,0.5-4,1.3-5.9c0.9-2.1,2.7-3.8,4.6-5.1
			c0.5-0.4,1.2-0.3,1.9-0.3c0.4,0.5,0.6,1.6,1.4,1.3c0.9-0.1,1.2-1.1,1.6-1.8c0.8,0.4,2.1,1.1,2.6,0c0.4-0.8-0.6-1.3-1.1-1.8
			C132.3,111.3,132.9,109,134.8,108L134.8,108z"/>
		<path d="M84.4,108c1.2-0.6,2.4-1,3.8-0.8c0.8,1,0.3,2.5-0.2,3.5C86.7,110,85.2,109.4,84.4,108z"/>
		<path d="M199,108.3c0.9-1.6,2.9-0.4,4.2,0.1c-0.8,1.3-2.3,2.1-3.7,2.6C199.3,110.1,198.9,109.2,199,108.3L199,108.3z"/>
		<path d="M69.3,112.4c0.1-0.4,0.4-0.6,0.7-0.9c0,0.8,0.1,1.6,0.1,2.4C69.7,113.5,69.1,113.1,69.3,112.4z"/>
	</g>
	<path class="st0" d="M141.5,112.9c0.7-0.5,1.4-0.6,2.2-0.6c0.3,1.1,1,2,1.5,3c-0.4,0.1-0.8,0.2-1.2,0.3c0,0.1-0.1,0.4-0.1,0.6
		c0.7,0.1,1.4,0.1,2.1,0.2c-0.4,2.2-0.8,5.3,1.6,6.6c-0.1,0.1-0.4,0.3-0.5,0.4c-0.8-0.6-1.5-1.8-2.6-1.4c-0.1-0.1-0.1-0.3-0.2-0.4
		c0.5-0.2,0.9-0.3,1.4-0.5c-0.1-0.3-0.2-0.6-0.2-1c-0.3-1-0.3-2.1-0.1-3.2c-1,0-1.9,0-2.9,0.1c-0.5,1.3-0.9,2.9,0.1,4
		c0.2,0.2,0.5,0.5,0.7,0.7c-0.1,0.1-0.1,0.3-0.2,0.4c-0.6-0.5-1.2-1-1.8-1.4c-0.4,0.6-0.9,1.2-1.1,1.9c-0.1,0.9,0.3,1.7,0.6,2.5
		c-1.5,0.1-2.9,0.1-4.4-0.1c1.2,0,2.4,0,3.5,0c-0.2-1.1-0.3-2.2-0.4-3.4c-1,0-2.1-0.3-3.1,0.2c-0.7,0.9-0.4,2.1-0.3,3.2
		c-0.2,0-0.5,0-0.6,0c-0.2-1-0.2-1.9,0.1-2.9c0.4-1.2,0.3-2.5,0.3-3.7c-1.1,2.1-2.1,4.2-1.9,6.6c-0.5,0.1-0.9,0.3-1.4,0.5l-0.2,0.1
		c-1.3-1.2-2.6-2.4-3.8-3.8c1.3-0.5,2.8-0.3,3.9-1.3c1.1-1,2.3-1.8,3.3-2.9c1-1.4,2.1-2.8,3.2-4.1c0.1,0.7,0.2,1.3,0.3,2
		c0.5,0.1,0.9,0.1,1.4,0.2c-0.1,0.9-0.2,1.9-0.4,2.8c-0.1,0.8-0.3,1.8,0.3,2.4c0.9-1.1,0.9-2.5,1.3-3.8c0.1-0.9,1.2-0.8,1.9-1
		c0-0.1,0-0.4,0-0.6c-0.5-0.1-1.1-0.2-1.6-0.3c0.5-0.8,1.1-1.5,1.7-2.2C142.8,113.1,142.1,113,141.5,112.9L141.5,112.9z"/>
	<path class="st0" d="M265.7,114c0.1,0,0.4,0,0.5,0c0.4,3,1.4,5.9,1.3,9c-0.7-0.9-0.8-2.6-2.2-2.8c-2.3-0.1-4.6,0.6-6.9,0.9
		c-1.8,0.4-3.7,0.4-5.4,1.2c-1,0.6-0.6,2-0.8,3c-0.1,0-0.3-0.1-0.4-0.2c-0.4-2-0.7-4-1.1-6c-0.2-0.9-0.3-1.8-0.3-2.7
		c0.8,0.8,0.8,2.4,2.1,2.5c2.2,0.2,4.4-0.5,6.7-0.8c1.8-0.4,3.7-0.4,5.4-1.1C265.9,116.5,265.6,115,265.7,114L265.7,114z"/>
	<path d="M168.3,115.2c1.7,0.5,3.2-0.7,4.9-0.7c1,0,2,0,3,0.3c1.1,1,2.3,2.1,3.1,3.4c0.6,1.3,0.9,2.8,1.6,4c0.7,1.3,1.8,2.3,2.8,3.4
		c0.2,0.5-0.4,0.7-0.6,1c-1.7,1.6-4.2,1.3-6.4,1.8c-0.6,0-0.9,0.6-1.1,1c-0.6,1.3-1,2.7-1,4.1c-0.2,2.3-2.2,3.9-2.1,6.3
		c0.1,1.3,0.5,2.5,0.4,3.8c0,1.2,0.2,2.5,1.3,3.3c0.4-0.2,0.9-0.4,1.2-0.9c0.6-0.9,1.3-1.9,1.2-3.1c-0.7-0.3-1.3-0.7-1.9-1.2
		c0.3-0.5,0.6-0.9,0.9-1.4c0.1-1.1-0.2-2.2,0-3.3c0.2-2.1,1-4.5,3.1-5.5c0.8,0,1.5,0.3,2.2,0.5c1.9,0.5,3.9,0.3,5.8,0.4
		c0.6,0.3,1,1,1.4,1.4c2.2,2.5,4.6,4.8,7.4,6.6c0.7,0.4,1.4,0.8,1.8,1.5c-1.7-0.1-3.3-0.4-5-0.2c-0.2,0.3-0.4,0.5-0.5,0.8
		c-0.3,2.3,0.4,4.5,0.7,6.8c0.1,1.3,0,2.9-1.1,3.7c-1.1,0.5-2.4,0.7-3.5,1.1c-1.6,0.6-3.4,0.8-5.1,1.3c-0.8,0.2-1.3,0.9-1.7,1.6
		c-0.4,0.7-1.1,1.2-1.7,1.8c-0.5,0.5-0.6,1.3-0.8,1.9c-2.5,1-4.5,3-5.3,5.5c-0.6,1.9-0.8,4.1,0.3,5.9c1.1,1.6,2.8,2.9,4.8,2.9
		c1.3,0.1,2.7-0.8,3-2.1c0.2-0.5,0.2-1.2,0.8-1.6c0.7,1.7,1,4.1-0.5,5.5c-0.9,1.1-2.2,1.7-3.5,2.2c0-0.4,0-0.8,0-1.1
		c-0.9,0.1-1.8,0.3-2.6,0.6c-0.2-0.2-0.4-0.3-0.7-0.5c-1.4,0.9-3,1.2-4.7,1c-1.4-0.4-2.7-1.1-4.1-1.3c-1.5-0.1-2.8,0.9-4.3,0.6
		c-2.6-0.5-5.2-0.3-7.9-0.3c-1,0-2,0-3,0.4c-3.3,1.3-5.8,3.9-7.6,6.9c-1.7-3-4.2-5.6-7.4-6.8c-1.3-0.6-2.8-0.4-4.2-0.4
		c-2.1,0-4.2-0.1-6.2,0.3c-1.5,0.3-2.9-0.8-4.3-0.6c-1.4,0.2-2.7,1-4.1,1.3c-1.8,0.2-3.8,0-5.3-1.3c0,0.2-0.1,0.6-0.2,0.8
		c-0.9-0.3-1.8-0.6-2.8-0.6c0,0.3-0.1,0.7-0.1,1c-2.3-0.7-4.6-2.5-4.5-5.1c0-0.9,0.2-2,1-2.5c0.2,1.4,0.8,3.1,2.3,3.5
		c3.4,0.7,7-2.6,6.6-6.1c0-3.6-2.4-6.9-5.7-8.2c-0.2-0.9-0.4-1.8-1.1-2.3c-1.2-0.9-1.5-2.7-3.1-3.1c-1.9-0.5-3.8-0.9-5.6-1.6
		c-1.4-0.5-3.3-0.6-3.7-2.3c-0.6-2.9,0.8-5.8,0.7-8.7c-0.1-0.3-0.2-0.7-0.3-1c-1.7-0.7-3.5,0-5.3-0.1c0.5-0.5,1-0.9,1.6-1.3
		c3.5-2.2,6.4-5.1,9.1-8.2c2.7,0.2,5.5,0.2,8.1-0.9c1,0.8,2.1,1.6,2.5,2.9c0.6,1.7,1,3.6,0.6,5.4c-0.3,0.9,0.6,1.5,0.9,2.2
		c-0.6,0.5-1.3,0.9-2,1.3c0.1,1.5,1,2.9,2.1,4c1.4-0.4,1.7-2.1,1.7-3.3c-0.1-1.8,0.8-3.7,0.2-5.5c-0.6-1.5-1.6-2.9-1.7-4.6
		c-0.1-1.8-0.6-3.6-1.6-5.1c-2.6-0.6-6-0.3-7.7-2.9c1.4-1.3,2.8-2.7,3.6-4.4c0.6-1.3,0.8-2.8,1.7-3.9c0.8-0.9,1.6-1.8,2.6-2.6
		c1-0.2,2.1-0.1,3.1-0.1c1.6-0.1,2.9,1,4.5,0.8c0,0.6,0,1.1,0,1.7c-0.9,0.4-1.9,0.5-2.8,1.1c-0.6,0.7-1,1.5-1.2,2.4
		c-0.1,1.2,0.8,2.4,0.5,3.6c-0.7,1.2-2.3,1.6-2.7,3c-0.2,1.7,1.2,2.7,2.2,3.8c-0.5,1.6-1,3.2-0.6,4.9c0.7,1.2,2.1,1.5,3.1,2.3
		c-0.1,0.6-0.2,1.2-0.3,1.8c0.5,0.3,1,0.6,1.4,1c0.3,0.6,0.5,1.2,0.8,1.8c0.4,0,0.8,0,1.2,0c0.2-0.7,0.4-1.3,0.6-2
		c1.3,0,2.6,0.8,3.1,2c0.4,1.2,0.2,2.5-0.3,3.6c-0.4,0.5-1,0.6-1.6,0.9c0.1,0.4,0.3,1.1,0.9,1.1c1,0.1,1.8-0.5,2.6-0.9
		c0.7,2.2,0.4,4.9-1.4,6.5c-0.6,0-1.2,0-1.7,0.2c0,0.7,0.4,1.2,0.8,1.8c0.2,1,0,2.1,0.2,3.1c0.4,0.6,1.1,0.8,1.7,1.2
		c1.2,0.6,1,2.2,1.8,3.1c1.1,0.6,2.5,0.3,3.7,0.7c1,0.6,1.6,1.6,2.6,2.1c1.1,0.2,2.1-0.4,3.1-0.4c1,0.4,1.6,1.3,2.6,1.6
		c1.5,0.2,2.8-1,4.3-1c1.5,0,2.8,1.3,4.3,1c1-0.3,1.7-1.3,2.7-1.7c1,0,1.9,0.6,2.9,0.6c1.2-0.4,1.8-1.8,2.9-2.3
		c1.1-0.3,2.4-0.1,3.5-0.6c0.5-0.6,0.7-1.5,1-2.2c0.3-1.1,1.7-1.2,2.3-2c0.4-0.9,0-1.9,0.1-2.8c0-0.8,1.4-1.5,0.8-2.3
		c-0.7-0.2-1.7,0-2.2-0.8c-1.4-1.6-1.2-3.9-1-5.8c0.8,0.3,1.7,0.7,2.5,0.9c0.6-0.1,1-0.5,1.1-1.1c-0.6-0.4-1.6-0.6-1.8-1.4
		c-0.3-0.9-0.6-1.9-0.2-2.8c0.4-1.4,1.8-2.3,3.2-2.2c0.1,0.7,0.3,1.5,0.7,2.1c1.2,0.2,1.5-1,1.9-1.9c0.5-0.4,1-0.7,1.5-1
		c-0.1-0.6-0.3-1.2-0.4-1.8c1.1-0.9,2.7-1.2,3.2-2.6c0.7-1.7-0.8-3.3-0.4-5c0.7-0.9,2-1.7,2-3c0.2-1.4-1.3-1.9-2.1-2.8
		c-1-0.8-0.4-2.3-0.2-3.3c0.4-1-0.2-2.1-0.7-3c-0.6-1-1.9-1-2.8-1.3C168.1,116.7,168.4,115.8,168.3,115.2L168.3,115.2z"/>
	<path class="st0" d="M146.9,115.2c0.6-0.3,1.3-0.5,2-0.7c0.2,0.9,0.1,1.8,0.4,2.6c0.5,0.7,1.4,1.1,1.6,2c-1.2,0-2.4-0.1-3.6,0
		c-0.2,0.8-0.3,1.7,0.3,2.3c0.9,0.3,1.8,0.2,2.7,0.2c0-0.4,0-0.7,0.1-1.1c1.4-0.9,2.5-2.4,4.1-3c0.1,1.4,0,2.8,0.2,4.3
		c0.5,0.3,1,0.6,1.5,0.9c-0.5,0.8-1,1.6-1.4,2.4c-0.1,0-0.4,0-0.5,0c-0.5-0.4-0.9-0.8-1.4-1.2c0.4-0.7,0.9-1.4,1.1-2.2
		c0.2-1,0-2.1-0.1-3.1c-1,0.7-2,1.4-2.7,2.4c-0.3,0.5-0.6,1.2-0.3,1.7c0.4,0.8,1.1,1.6,1.6,2.4c-0.2,0-0.5,0-0.6,0
		c-0.7-1-1.4-1.8-2.2-2.7c-0.2,0.9-0.4,1.9-0.6,2.9c-0.4-1.1,0-2.3,0.1-3.4c-0.4,0.3-0.7,0.5-1.1,0.8c-0.6-0.9-1.4-1.8-1.2-3
		c0-1.1,1-1.7,1.5-2.5c0.1-0.5,0.1-1,0.1-1.5C147.9,115.5,147.4,115.4,146.9,115.2L146.9,115.2z"/>
	<g>
		<path d="M119.3,114.9c0.8,0.4,1.3,1.1,1.9,1.8c-1.2,1.5-2.2,3.1-2.8,4.9c-1.1,3.3-1.7,6.8-0.9,10.2c0.6,2.8,1.6,5.7,3.7,7.8
			c-0.9,0.3-1.7,0.8-2.3,1.4c-0.5-0.4-0.9-0.7-1.4-1c0.1-0.6,0.6-1.4,0.1-1.9c-0.9-0.7-2.1-1.1-2.9-2c-0.5-1.7,0.2-3.4,0.5-5.1
			c-0.7-1-2-1.7-2.1-3c-0.4-2.1,2.7-2.4,2.7-4.3c-0.2-1.1-0.8-2.2-0.5-3.4c0.3-0.7,0.6-1.4,1.1-1.9c0.8-0.6,1.9-0.5,2.7-1.1
			C119.4,116.5,119.1,115.6,119.3,114.9L119.3,114.9z"/>
		<path d="M166.1,116.6c0.6-0.6,1.2-1.2,1.9-1.7c0.1,0.8,0.1,1.6,0.1,2.4c0.9,0.3,1.8,0.4,2.6,0.8c0.6,0.6,0.9,1.4,1.1,2.2
			c0.1,1.3-0.8,2.6-0.3,3.9c0.6,1,1.7,1.5,2.4,2.3c0.2,0.9,0.2,2.1-0.6,2.7c-0.4,0.6-1.3,0.9-1.3,1.7c0,1.5,0.9,2.8,0.6,4.3
			c-0.5,1.5-2.3,1.8-3.3,2.9c0.1,0.6,0.5,1.2,0.2,1.8c-0.4,0.3-0.9,0.5-1.4,0.7c-0.7-0.4-1.3-0.9-2-1.3c1.7-1.5,2.6-3.7,3.3-5.9
			c0.7-2.5,1.1-5.1,0.6-7.6C169.5,122.7,168.4,119.3,166.1,116.6L166.1,116.6z"/>
		<path d="M136.9,117.3c0.2-0.6,0.7-0.9,1.3-0.9c0,0.2,0,0.7,0,0.9C137.7,117.3,137.3,117.3,136.9,117.3z"/>
		<path d="M138.9,116.5c0.5-0.4,1,0.4,0.5,0.7C139,117.6,138.5,116.8,138.9,116.5z"/>
		<path d="M142.3,117.1c1,0,1.9-0.1,2.9-0.1c-0.1,1.1-0.2,2.1,0.1,3.2c-0.1,1.6-1.9,1.2-3,0.9C141.4,120,141.8,118.3,142.3,117.1z"
			/>
		<path d="M136.6,117.9c1-0.3,2-0.2,3-0.2c-0.2,1.1-0.3,2.2-0.3,3.2c-1,0.1-2.1,0.1-3.1-0.1C136.1,119.9,136,118.8,136.6,117.9z"/>
		<path d="M149.2,118.4c0.3-0.4,1,0.1,0.7,0.5C149.6,119.3,148.9,118.8,149.2,118.4z"/>
		<path d="M133.7,125.2c-0.3-2.4,0.8-4.6,1.9-6.6c0,1.2,0.1,2.5-0.2,3.7c-0.3,0.9-0.2,1.9-0.1,2.9
			C134.7,125.1,134.2,125.2,133.7,125.2z"/>
		<path d="M151,121c0.7-1,1.8-1.7,2.7-2.4c0.1,1,0.3,2.1,0.1,3.1c-0.2,0.8-0.7,1.5-1.1,2.2c0.5,0.4,0.9,0.8,1.4,1.2
			c-0.6,0-1.2,0-1.8,0c-0.5-0.8-1.1-1.5-1.6-2.4C150.4,122.1,150.7,121.5,151,121z"/>
		<path d="M132.2,121.6c0.5-0.6,1.2-1.2,1.9-1.6c-0.3,0.8-0.6,1.6-0.9,2.3C132.8,122.1,132.5,121.9,132.2,121.6z"/>
	</g>
	<path class="st0" d="M145.3,120.2c0.1,0.3,0.2,0.6,0.2,1c-0.5,0.2-0.9,0.3-1.4,0.5c0.1,0.1,0.1,0.3,0.2,0.4c0.5,0.8,1.2,1.4,1.9,2
		c0.2-0.2,0.5-0.4,0.7-0.6c0.1-0.1,0.4-0.3,0.5-0.4c0.1-0.1,0.4-0.3,0.5-0.4c0.4-0.3,0.7-0.6,1.1-0.8c-0.2,1.1-0.5,2.3-0.1,3.4
		c0.5,0,1.1,0,1.6-0.1c-0.3-0.7-0.7-1.4-1-2.1c0.7,0.6,1.1,2,2.1,2c0.2,0,0.5,0,0.6,0c0.6,0,1.2,0,1.8,0c0.1,0,0.4,0,0.5,0
		c0.2,0,0.5,0,0.7,0c-0.1,0.6-0.2,1.1-0.6,1.6c-1.7,0.7-3.6,0.3-5.4,0.4c-2.9-0.2-5.8-0.3-8.8-0.1c-0.9,0.1-1.9-0.1-2.8-0.1
		c-1.5,0-3,0.2-4.5-0.1c-0.4-0.3-0.8-0.7-1.1-1.1c0.5-0.2,0.9-0.3,1.4-0.5c0.5,0,1-0.1,1.5-0.1c0.2,0,0.5,0,0.6,0l0.2,0
		c1.4,0.2,2.9,0.3,4.4,0.1c1.5-0.1,1.7-1.9,2.4-3c0-0.1,0.1-0.3,0.2-0.4c-0.3-0.2-0.5-0.5-0.7-0.7
		C143.4,121.4,145.2,121.8,145.3,120.2L145.3,120.2z"/>
	<g>
		<path d="M141.1,120.8c0.6,0.5,1.2,0.9,1.8,1.4c-0.7,1.1-0.9,2.9-2.4,3c-0.2-0.8-0.6-1.6-0.6-2.5
			C140.1,122,140.7,121.4,141.1,120.8z"/>
		<path d="M136.2,121.9c1-0.4,2.1-0.2,3.1-0.2c0.1,1.1,0.2,2.2,0.4,3.4c-1.2,0-2.4,0.1-3.5,0l-0.2,0
			C135.8,124,135.5,122.8,136.2,121.9L136.2,121.9z"/>
		<path d="M144.4,122.1c1.1-0.4,1.8,0.8,2.6,1.4c-0.2,0.2-0.5,0.4-0.7,0.6C145.6,123.5,144.9,122.9,144.4,122.1z"/>
		<path d="M129.4,122.3c0.7-0.2,1.4-0.4,2.2-0.3c0.6,0.3,1.1,0.8,1.4,1.3c0.1,0.6,0,1.3,0,1.9C131.4,125,130.5,123.3,129.4,122.3
			L129.4,122.3z"/>
		<path d="M149.5,122.4c0.8,0.8,1.5,1.7,2.2,2.7c-1.1-0.1-1.4-1.4-2.1-2c0.3,0.7,0.7,1.4,1,2.1c-0.5,0-1.1,0-1.6,0.1
			C149.1,124.3,149.3,123.3,149.5,122.4z"/>
	</g>
	<path class="st0" d="M194.4,124.5c-0.1-0.7,0-1.4,0.1-2.1c0.4,0.2,0.7,0.5,1.1,0.7c0-0.2,0.1-0.4,0.1-0.6c0.1,0.4,0.1,0.8,0.2,1.2
		c-0.4,0-0.7,0-1.1-0.1c-0.1,0.2-0.3,0.5-0.4,0.6L194.4,124.5L194.4,124.5z"/>
	<g>
		<path d="M153.5,123.8c0.3-0.7,0.8-1.2,1.6-1.2c-0.1,0.6-0.5,1.1-0.9,1.5C154,124.1,153.7,123.9,153.5,123.8z"/>
		<path d="M142.6,125.2c0.1-0.8,0.4-1.7,0.8-2.4c0,0.8,0,1.6,0,2.3C143.2,125.2,142.8,125.2,142.6,125.2z"/>
		<path d="M143.8,123.4c0.5,0.5,0.8,1.1,0.8,1.8C143.5,125.3,143.7,124.2,143.8,123.4z"/>
		<path d="M194.9,123.7c0.3,0,0.7,0,1.1,0.1c0.3,0.5,0.5,1,0.6,1.6c-0.7-0.2-1.4-0.6-2-1.1C194.7,124.2,194.8,123.8,194.9,123.7z"/>
	</g>
	<path class="st0" d="M18.7,124.1c0.5,0.7,0.7,1.7,1.7,2c1,0.3,2,0.3,3,0.4c3.8,0.1,7.7,0.3,11.5,0.5c0.1,0.3,0.1,0.6,0.2,0.9
		c-3.1,2.4-6.1,4.9-9.1,7.5c-1.3,1.2-2.8,2.2-4,3.5c2.9,0.2,5.9,0.2,8.8,0.2c0.8,0,1.7-0.2,2.1-0.8c0.4-0.6,0.6-1.3,0.8-2
		c0.4,2.2,0.2,4.5,0.1,6.7c-0.3-0.5-0.6-1.1-0.9-1.6c-0.5-0.7-1.4-0.9-2.2-1c-2.4-0.2-4.8-0.2-7.2-0.3c-1.3,0-2.8-0.2-3.9,0.5
		c-0.9,0.5-0.9,1.8-1.7,2.4c-0.2-1.8,0.2-3.5,0.2-5.3c3.6-2.6,7-5.5,10.4-8.3c0.6-0.5,1.3-0.9,1.7-1.6c-2.6-0.1-5.3-0.1-7.9-0.2
		c-0.8,0-1.8,0-2.5,0.6c-0.7,0.8-0.7,2-1.4,2.9C18.4,128.8,18.3,126.4,18.7,124.1z"/>
	<g>
		<path d="M147.2,124.3c0.5,0.2,1,0.4,1.4,0.7c-0.5,0-1.1-0.1-1.6-0.1C147.1,124.7,147.1,124.5,147.2,124.3z"/>
		<path d="M90.1,127.3c0.1-1.3,1.2-2.1,2.4-2.2C92.5,126.4,91.3,127,90.1,127.3z"/>
		<path d="M194.9,125.2c1.2,0.2,2.3,0.9,2.3,2.2c-0.6-0.2-1.3-0.4-1.8-0.7C195.1,126.3,195,125.7,194.9,125.2L194.9,125.2z"/>
	</g>
	<path class="st0" d="M266.4,128.3c1.1-0.4,1.1-1.8,2-2.6c0.2,1.6,0.1,3.2,0.2,4.7c0.1,1.2,0.2,2.4,0.1,3.6
		c-0.8-0.6-0.7-1.6-1.4-2.2c-0.8-0.2-1.7,0.2-2.4,0.5c-2.8,1.2-5.7,2.5-8.5,3.7l-0.1,0.3c2.1,0.8,4.2,1.5,6.3,2.2
		c1.6,0.5,3.3,1.2,4.9,0.8c0.8-0.7,0.3-2.1,1.2-2.7c0.1,2.4,0.3,4.7,0.2,7.1c-0.8-0.7-1.2-1.9-2.2-2.4c-1.8-1-3.7-1.5-5.6-2.3
		c-3-1.2-6.1-2.2-9-3.5c0-0.2,0-0.5,0-0.7C256.7,132.6,261.6,130.6,266.4,128.3L266.4,128.3z"/>
	<path class="st0" d="M128.4,127.1c0.4-0.3,1.1-0.3,1.5,0C129.7,127.5,128.5,127.5,128.4,127.1z"/>
	<path d="M89.2,129.2c0.2-1.2,1.4-1.8,2.5-1.8C91.6,128.7,90.3,129.1,89.2,129.2z"/>
	<path class="st0" d="M134,128c0.5-0.4,1-0.5,1.6-0.6c0,0.2,0,0.5,0,0.7C135.1,128,134.5,128,134,128z"/>
	<g>
		<path d="M195.7,127.6c1.1,0.1,2.3,0.6,2.4,1.9C197,129.4,195.7,128.9,195.7,127.6z"/>
		<path d="M119.8,129c15.9,0,31.8,0,47.7,0c0.2,2.9-0.6,5.8-2.3,8.2c-1-0.3-2.2-0.8-3,0c-0.5,0.3-0.4,0.9-0.4,1.3
			c0,0.7,0.8,0.9,1.2,1.4c-1,0.5-1.8,1.4-2.8,1.9c-11,0-22.1,0-33.1,0c-1.1-0.3-1.8-1.3-2.8-1.8c0.8-0.6,2-1.4,1.4-2.5
			c-0.8-1.2-2.4-0.6-3.5-0.4C120.5,134.7,119.7,131.9,119.8,129L119.8,129z"/>
		<path d="M88.2,131c0.4-1.1,1.6-1.7,2.7-1.6C90.7,130.7,89.3,131.1,88.2,131z"/>
		<path d="M196.5,129.6c1.1-0.1,2.2,0.6,2.6,1.7c-0.8,0-1.6,0-2.2-0.5C196.8,130.4,196.6,130,196.5,129.6z"/>
		<path d="M81,131.1c0.3-0.4,0.7-0.8,1.2-1c1.1,1.1,2.3,2.1,3.5,3c-0.3,0.5-0.6,0.9-1,1.4C83.3,133.5,82.1,132.4,81,131.1z"/>
		<path d="M201.4,133.6c1.3-1,2.6-2,3.7-3.2c0.4,0.3,0.8,0.6,1.2,1c-0.9,1.4-2.3,2.5-3.7,3.4C202.2,134.4,201.8,134,201.4,133.6z"/>
	</g>
	<path class="st0" d="M158.1,131.4c0.4-0.1,0.9,0,1.3,0.1c-1.5,0.5-3,0.8-4.4,1.6c0.3,0.6,1,0.9,1.6,1.3c1.8-0.6,3.6-1.3,5.5-1.1
		c-1.4,0.7-3,0.9-4.4,1.7c-1.1,0.6-2.4,1.1-3.2,2c-0.7,0.9-1.2,1.9-1.8,2.9c-5.4,0.3-10.8,0.3-16.2,0.6c-1.4,0.1-2.8,0.1-4.2,0.1
		c1.2-1.9,2.7-3.6,3.6-5.7c-0.9-0.1-1.4,0.7-1.8,1.3c-1,1.5-2.1,2.9-3.1,4.4c-0.8,0-1.6,0-2.4,0c0.7-1.2,1.5-2.4,2.4-3.5
		c0.6-0.9,1.7-1.2,2.6-1.8c-0.2-0.5-0.9-0.4-1.3-0.5c-1.8-0.3-3.8-1-4.7-2.8c1,0.4,1.8,0.9,2.8,1.3c1.4,0.5,2.9,0.6,4.4,0.4
		c0.5,0,1,0,1.6,0c0.1,0,0.4,0,0.5,0c0.8-1,1.7-2,3-2.4c-0.5,0.8-1,1.6-1.4,2.4c2.7-0.2,5.3-1,8-0.8c1.7,0,3.2,0.6,4.8,1.1
		c0.5,0.2,0.9-0.2,1.3-0.4C154.1,132.5,156.1,131.7,158.1,131.4L158.1,131.4z"/>
	<path d="M86.7,132.4c0.7-0.8,1.8-1.3,2.9-1.1C89.3,132.6,87.7,133,86.7,132.4z"/>
	<path class="st0" d="M134.7,133.7c0.4-1.3,1.6-2.2,2.9-2.4c-0.4,0.8-0.9,1.6-1.3,2.4C135.8,133.7,135.2,133.7,134.7,133.7z"/>
	<g>
		<path d="M197.8,131.6c1.1-0.1,2.3,0.3,2.8,1.5C199.4,133.2,198,132.9,197.8,131.6z"/>
		<path d="M85.4,134.4c0.4-1.2,1.7-1.4,2.9-1.3c-0.2,0.5-0.4,1-0.9,1.3C86.6,134.4,86,134.4,85.4,134.4z"/>
		<path d="M137.1,134.1c0.3-0.4,0.6-0.8,1-1.1c-1,2.2-2.7,4-3.7,6.3c3.2,0,6.3-0.6,9.4-0.9c2.7-0.6,5.5-0.3,8.3-0.3
			c0.1,0.5,0.3,1,0.4,1.6c-2.6,0.1-5.1,0.3-7.7,0.3c-3.9,0.1-7.8,0.4-11.7,0.4C134.2,138.1,135.7,136.1,137.1,134.1z"/>
		<path d="M199.1,133.4c1.1-0.1,2.3,0.2,2.9,1.3c-0.8,0.2-1.5,0.1-2.3,0C199.5,134.2,199.3,133.8,199.1,133.4z"/>
		<path d="M153,134.6c0.7-0.9,1.8,0,2.5,0.6C154.7,135.5,153.1,135.6,153,134.6z"/>
		<path d="M144.6,134.6c1.9-0.3,3.8,0.3,5.5,1.2c-0.3,0.4-0.7,0.6-1.2,0.6c-1.5,0-3-0.2-4.6,0c-1.7,0.3-3,1.6-4.6,2.2
			c-1.6,0.3-3.2,0.3-4.8,0.4c0.6-1.4,1.5-2.6,2.4-3.9C139.7,135.1,142.1,134.6,144.6,134.6z"/>
		<path d="M83.6,135.9c0.7-0.9,1.7-1.1,2.8-1C86.1,136.1,84.6,136.5,83.6,135.9z"/>
		<path d="M131.6,136.7c0.9-0.5,1.9-1.1,2.8-1.7c-0.9,2-2.4,3.5-3.7,5.3c-0.5,0-1.1,0-1.6,0C129.7,139,130.6,137.7,131.6,136.7
			L131.6,136.7z"/>
		<path d="M201,135.2c1.1-0.2,2.2,0.3,2.8,1.3c-0.9,0.1-1.8,0-2.6-0.3C201.2,135.8,201.1,135.5,201,135.2L201,135.2z"/>
	</g>
	<path class="st0" d="M33.6,135.8c0.2,0,0.5,0,0.7,0c0.1,2-0.3,3.9-0.3,5.9c0,0.7,0,1.4-0.5,1.9c-0.3-0.7-0.5-1.5-0.7-2.3
		c0.3,0.5,0.6,1.1,0.9,1.6c0.1-2.2,0.3-4.5-0.1-6.7C33.6,136.2,33.6,135.9,33.6,135.8L33.6,135.8z"/>
	<g>
		<path d="M150.3,137.7c0.3-0.6,0.7-1.2,1.3-1.6c0.4,0.2,0.8,0.4,1.2,0.6c-0.2,0.4-0.5,0.7-0.8,1
			C151.4,137.8,150.9,137.7,150.3,137.7z"/>
		<path d="M81.8,138.1c0.4-1.2,1.8-1.6,2.9-1.1C84.1,138,82.9,138.2,81.8,138.1z"/>
		<path d="M142.2,138.1c0.8-0.7,1.9-1.2,2.9-1.5c1.3-0.1,2.7-0.1,4-0.1c-0.3,0.8-0.9,1.4-1.8,1.2
			C145.6,137.5,143.9,138.3,142.2,138.1z"/>
		<path d="M202.7,137.1c0.6,0,1.2,0,1.7,0.2c0.4,0.3,0.7,0.7,1,1.1C204.3,138.6,202.9,138.4,202.7,137.1z"/>
		<path d="M80,139.8c0.5-1.2,1.8-1.5,2.9-1.3C82.6,139.8,81.2,139.9,80,139.8z"/>
		<path d="M204.4,138.8c1.2-0.1,2.3,0.3,2.8,1.4C206.1,140.2,204.6,140.2,204.4,138.8z"/>
		<path d="M71.1,140.5c0.1-0.2,0.4-0.7,0.5-1c1.6,1.3,3.2,2.6,4.7,4c0.5,0.5,0.9,1.1,1.4,1.6c-0.2,0.4-0.5,0.9-0.8,1.2
			c-1.6,1.6-3.2,3.3-4.7,5c-0.3-0.6-0.7-1.4-0.2-2c1.1-1.5,2.5-2.8,3.7-4.3C74.3,143.4,72.4,142.2,71.1,140.5L71.1,140.5z"/>
		<path d="M78.6,141.5c0.2-1.5,1.8-1.4,2.9-1.3C80.9,141.3,79.7,141.7,78.6,141.5z"/>
		<path d="M211.3,143.6c1.2-1.2,2.5-2.2,3.9-3.3c0.2,0,0.5-0.1,0.7-0.1c0,0.3,0,0.9,0,1.1c-1.4,1.5-3,2.8-4.5,4.1
			c1.2,1.6,2.7,3,3.9,4.7c0,0.5,0,1,0,1.5c-0.2,0-0.5-0.1-0.7-0.1c-1.3-1.3-2.3-2.8-3.7-4c-0.7-0.6-1.4-1.3-1.4-2.2
			C210.1,144.7,210.7,144.2,211.3,143.6L211.3,143.6z"/>
		<path d="M205.8,140.6c1,0,2,0,2.6,0.9c-0.6,0.1-1.1,0.1-1.7,0.2l-0.2,0C206.3,141.3,206,140.9,205.8,140.6z"/>
	</g>
	<path class="st0" d="M208.4,141.5l0.2,0c0.1,0.3,0.2,0.6,0.4,1c-0.5,0.1-1,0.2-1.5,0.2c-0.4-0.1-0.5-0.7-0.8-1
		C207.3,141.6,207.8,141.5,208.4,141.5z"/>
	<g>
		<path d="M77.2,142.9c0.4-1.1,1.7-1,2.7-1c-0.2,0.3-0.4,0.6-0.6,1C78.6,142.9,77.9,142.9,77.2,142.9z"/>
		<path d="M127.1,142.3c10.9,0,21.8,0,32.7,0c-1.5,3-1.6,6.4-0.7,9.6c-0.6,0.1-1.1,0.2-1.7,0.4c0,0.3-0.1,0.6-0.1,0.9
			c0.4,0.3,0.9,0.7,1.3,1c0.1,1.8-1,3.5-2.6,4.2c-1.3,0.7-2.6,1.3-4,1.8c-0.3-0.7-0.5-1.5-0.8-2.2c-0.3,0.8-0.3,2-1.3,2.2
			c-1,0.4-2-0.1-2.9-0.4c0.1-0.8,0.2-1.6,0.1-2.3c-0.6-0.6-1.4,0.1-2,0.2c-0.6-0.3-1.1-1-1.9-0.7c-0.4,0.2-0.9,0.5-1.3,0.7
			c-0.6-0.2-1.1-0.4-1.7-0.5c-0.6,0.8-0.3,1.8-0.3,2.7c-1,0.4-2.2,0.9-3.2,0.2c-0.5-0.5-0.7-1.2-1.1-1.9c-0.2,0.7-0.5,1.4-0.7,2
			c-1.4-0.4-2.8-1.2-4.1-1.9c-1.5-0.7-2.3-2.2-2.6-3.8c0.3-0.7,1-1,1.5-1.5c-0.1-0.2-0.3-0.6-0.3-0.9c-0.6-0.1-1.1-0.2-1.7-0.3
			c0.5-2.1,0.6-4.3,0.3-6.5C128,144.3,127.5,143.3,127.1,142.3L127.1,142.3z"/>
		<path d="M207.5,142.7c0.5-0.1,1-0.2,1.5-0.2c0.5,0,0.6,0.6,0.9,0.9c-0.6,0-1.2,0.1-1.7,0.1C208,143.3,207.7,142.9,207.5,142.7z"/>
	</g>
	<g>
		<path class="st0" d="M76.4,143.5c0.7-0.3,1.4-0.4,2.1-0.4c-0.2,0.7-0.5,1.4-0.7,2C77.3,144.6,76.8,144,76.4,143.5z"/>
		<path class="st0" d="M115.9,146.9c0.1-1.3,0.5-2.9,1.6-3.7c-0.1,1.2-0.3,2.5-1,3.5C116.4,146.8,116,146.9,115.9,146.9z"/>
		<path class="st0" d="M130.4,145.4c1.1-1.5,3.3-2.1,5.1-1.6c1,0.4,1.9,1.1,2.5,2.1c0.3,0.5,0.2,1.3,0.6,1.7
			c0.5-0.3,0.4-1.1,0.7-1.5c1-2,3.6-3,5.7-2.2c1.1,0.4,2.3,1.2,2.5,2.5c0.2,0.9,0.2,1.9,0,2.9c-0.3,0.3-0.5,0.5-0.8,0.8
			c0.1,1.6,0.5,3.2,0.4,4.9c-0.8,0-1.6-0.1-2.4-0.2c-1.5-0.1-3.1,1-4.5,0c0.3-1.3,0.3-2.7,0.6-4.1c-0.8-0.7-1.7-1.3-2-2.3
			c-0.1-0.1-0.2-0.2-0.2-0.2c-0.5,0.4-0.8,1-1,1.6c0.2,1.6,0.9,3.2,0.5,4.8c-2.1,0.9-4.4,0.8-6.6,0.3c-0.5-1.5-0.1-3.1,0-4.6
			c-0.5-0.2-1-0.4-1.5-0.5C129.8,148.4,129.5,146.7,130.4,145.4L130.4,145.4z"/>
		<path class="st0" d="M148.1,146.8c0.9-3.3,5.8-4.4,8-1.8c-0.3,0.3-0.5,0.5-0.8,0.8c0-0.5,0-1-0.6-1.2c-1.8-0.8-4.3-0.4-5.5,1.2
			c-0.5,0.8-0.8,1.9-0.4,2.8c0.6,0.7,1.4,1.1,2.2,1.6c-0.2,0-0.6,0.1-0.7,0.1c-1.1,0.3-1.7-0.9-2.2-1.6c-0.2,0.2-0.3,0.4-0.5,0.6
			c0.2-0.9,0.2-1.9,0-2.9C147.7,146.6,147.9,146.7,148.1,146.8z"/>
		<path class="st0" d="M208.6,143.8c0.9-0.1,1.8-0.1,2.7-0.1c-0.6,0.6-1.2,1.1-1.8,1.7C209.1,144.8,208.9,144.3,208.6,143.8z"/>
		<path class="st0" d="M167.1,144c1.3,0.2,2,1.5,2.3,2.7c0.7,2.7-0.5,5.4-0.1,8.2c0.8-0.3,1.6-0.5,2.4-0.8c1.2-0.9,1.7-2.5,2-3.9
			c-1.4,1.1-2.3,2.7-3.5,3.9c0.8-1.9,2.3-3.6,3.9-4.9c0.3,0.8-0.1,1.7-0.3,2.5c-0.4,1.3-1.2,2.6-2.5,3.1c-0.6,0.3-1.4,0.4-1.8,1.1
			c-0.8,1.4-0.7,3.1-1.4,4.5c-0.6,1.2-1.5,2.2-2.1,3.4c1.6-0.6,2.6-2.1,3.9-3.1c1.3-1,2.5-2.2,3.9-3c-0.4,1.4-1.1,2.8-2,4
			c-0.5,0.7-1.2,1.4-2,1.7c-0.9,0.3-1.9,0.1-2.8,0.3c-1.2,0.6-2.2,1.5-3.2,2.5c-1,1-2.1,1.9-3,2.9c1.5,0,2.6-1.2,3.9-1.7
			c1.8-0.7,3.7-1.4,5.6-1.6c-0.7,1.6-2.3,2.7-4,3.2c-1.7,0.6-3.6,0-5.4,0.5c0,0.2,0.1,0.6,0.2,0.8c-0.1,0-0.3-0.1-0.4-0.1
			c-0.6-0.2-1.2-0.4-1.8-0.1c-2,0.8-4.1,1.2-5.9,2.2c1.2,0.1,2.4,0.1,3.5-0.2c1.7-0.5,3.6-0.2,5.3,0c1.2,0.2,2.5,0.3,3.6,0.9
			c-1.3,0.7-2.7,0.9-4.1,1.1c-1.5,0.2-3.1,0.3-4.5-0.4c-0.7-0.3-1.4-0.9-2.2-0.9c-1.3-0.1-2.6-0.3-3.8,0.3c-1.5,0.8-3.3,0.9-4.8,1.8
			c2.9-0.1,5.7,0.5,8.5,0.9c0.4,0,0.8,0.3,1.1,0.6c-2,0.7-4.1,1.2-6.2,0.7c-1.2-0.2-2.1-1.1-3.2-1.5c-1.1,0.1-2.4,0-3.2,0.9
			c1.4,1,3,1.8,4.4,2.7c-0.1,0.8-1.1,0.9-1.8,1c-1.6-0.5-2.7-1.8-4.1-2.5c-1,0.3-1.6,1.4-2.6,1.8c0.2-1.1,1.2-1.7,1.8-2.6
			c-1.3-0.8-2.8-0.9-4.3-1.2c-2.4-0.5-4.9-0.9-7.4-0.6c-2.3,0.7-4.3,2.2-6.7,2.5c1-1,2.3-1.4,3.4-2.3c0,0.2,0,0.6,0,0.7
			c1.5-0.6,2.9-1.5,4.5-1.4c2-0.1,3.9,0.4,5.9,0.5c-2.1-1.4-4.8-1.1-7.2-1.1c-1.1-0.1-2,0.6-2.9,1.1c1.4-2,4-1.6,6.1-1.7
			c-1.3-0.7-2.7-1.5-4.2-1.7c-1.9-0.3-3.7-0.9-5.6-0.9c-1.4,0-3-0.7-4.3,0.2c-1.2,1.3-1.5,3.2-2.2,4.8c0.1-1.9,0.4-3.7,0.9-5.5
			c0.2-0.7,0.5-1.6,1.3-1.8c1.1-0.2,2.3-0.1,3.4-0.3c-1.2-1.1-2.5-1.9-3.7-2.9c-1.8-1.4-3.3-3.3-5.5-4.2c-1.4-0.7-3-1.1-4-2.3
			c1.8-0.1,3.4,0.8,5,1.4c1.4,0.6,2.6,1.6,4,2.2c-1.8-3.5-4.4-6.6-6.8-9.7c0.2,0.1,0.4,0.2,0.6,0.3c2.1,2.1,3.3,5,5.4,7.1
			c-0.1-1-0.5-2-1.1-2.8c-1.2-1.7-2.6-3.3-3.9-4.8c-0.6-0.7-1.4-1-2.3-1.2c0,0.1-0.1,0.4-0.2,0.6c-0.8-0.4-1.8-0.6-2.3-1.4
			c1.5,0.1,3,0.3,4.3,1c1.8,1.6,3.1,3.8,4.8,5.5c-0.1-1.1-0.2-2.2-0.7-3.1c-0.5-0.9-1.2-1.9-1.4-2.9c0.6,0.5,1.1,1,1.5,1.6
			c0.1-1.5,0.2-3-0.3-4.4c-0.3-0.8-0.5-1.7-0.4-2.6c0.9,0.6,1.1,1.6,1.5,2.5c0.7-0.9,1.4-1.8,2.4-2.4c-0.2,1.6-1.4,2.8-2.8,3.7
			c-0.1,2.2-0.1,4.4,0.5,6.5c0.7-2,1.1-4.7,3.3-5.7c0.5,1.6,0.7,3.3,1.1,5c0.1,0.7,0.4,1.5-0.2,2c-0.6-1.4-0.9-2.9-1.6-4.2
			c-1.1,3.3-1,7.1,1,10.1c0.1-1.4,0.1-2.8,0.4-4.2c0.1-0.7,1-0.7,1.5-0.8c0.5,1.5,0.6,3,1.3,4.4c0.5,1.1,1.2,2.1,1.6,3.1
			c-1-0.4-1.8-1.4-2.6-2.1c0.2,1.8,1.4,3.3,2.6,4.5c0.9,0.9,2.2,1.5,3.5,1.5c-0.8-2.2-2.1-4.2-2.6-6.6c0.8,1,1.2,2.3,2.1,3.3
			c1,1.2,2.1,2.3,3.3,3.3c1.6,1.4,3.3,3,5.4,3.6c-1-1.7-2.7-2.9-3.7-4.6c2,1,3.6,2.6,5.4,3.9c1.4,1.1,2.4,2.6,3.9,3.6
			c1,0.3,1.7-0.6,2.3-1.2c1-1,0.7-2.6,1.8-3.5c1.4-1.4,3-2.6,4.9-3.2c-0.6,1.8-1.9,3.3-3.2,4.6c-0.9,1-2.6,1.1-3.2,2.4
			c1.3-0.4,2.6-1,3.8-1.5c0.9-0.3,1.9-0.5,2.6-1.2c1.1-1,0.9-2.8,2.2-3.8c1.4-1.2,2.9-2.5,4.7-2.9c-0.6,1.7-1.8,3-2.9,4.4
			c-0.9,1.1-2.5,1.2-3.5,2.3c2-0.3,3.7-1.5,5.7-1.9c1.1-0.2,1.7-1.3,2.1-2.3c0.2-0.9-0.2-1.8,0.2-2.6c0.6-1.4,1.5-2.6,2.4-3.8
			c0.2-0.3,0.5-0.5,0.9-0.6c0.2,2.2-0.2,4.6-2,6.1c-0.9,0.7-1.6,1.5-2,2.6c2-0.4,3.4-1.9,4.6-3.4c0.9-1.1,2.4-2.2,1.9-3.8
			c-1.1-2.5-0.9-5.4-0.4-8c1,1.4,1,3.2,1.3,4.9c0.4,1.4-0.4,2.7-0.6,4c1.1-0.8,1.7-2.1,2-3.4c0.1-0.4-0.2-0.7-0.4-1
			c0.2-0.4,0.4-0.8,0.5-1.2c0.2-0.8-0.4-1.5-0.7-2.1c-1.1-2-2-4.5-1.1-6.7c1.8,2.5,1.4,5.7,2.3,8.5c0.9-1.8,0.7-3.8,0.7-5.8
			C168.2,149,167.2,146.6,167.1,144L167.1,144z"/>
	</g>
	<g>
		<path d="M130.1,146.8c0.3-1.7,2-2.8,3.7-2.8c0.7,0,1.7-0.2,2,0.7c0,0.6-0.2,1.2-0.4,1.9c-0.5,0.8-1.3,1.4-2.1,1.8
			c0,0.4,0,0.9,0,1.3c-1-0.3-2-0.4-3,0.1C130.1,148.8,129.8,147.8,130.1,146.8z"/>
		<path d="M139.4,149.3c-1.1-2.5,1.3-5.4,3.8-5.3c1.2-0.1,2.4,0.3,3.2,1.2c0.3,0.9-0.6,1.2-1.3,1.3c0,0.4,0,0.8,0,1.2
			c-0.5,0.4-0.9,0.9-1.2,1.4c-0.7,0-1.4,0-2-0.3c0.1,0.4,0.3,0.8,0.4,1.2c0.9,0,1.8,0,2.8,0c0.2,0.4,0.3,0.8,0.5,1.1
			c-1.2,0.8-2.7,1.6-2.7,3.2c-0.6,0-1.2,0-1.8,0c-0.6-1.5-0.2-3.1,0.7-4.3C141.1,149.6,140.2,149.3,139.4,149.3z"/>
		<path d="M149.2,145.8c1.2-1.6,3.7-2,5.5-1.2c0.6,0.2,0.5,0.7,0.6,1.2c-0.8,0.9-1.9,1.7-2.2,2.9c-0.2,1,0.5,1.6,1,2.4
			c-0.3,0.7-0.9,1.3-1.3,2c-0.2,0.7-0.2,1.5-0.7,2.1c-0.7-0.7-1.3-1.6-1.7-2.5c-0.1-0.7,0.2-1.3,0.3-2c0.6,0,1.2-0.1,1.8-0.2
			c-0.5-0.1-0.9-0.2-1.4-0.2c-0.7-0.5-1.6-0.9-2.2-1.6C148.4,147.7,148.7,146.6,149.2,145.8L149.2,145.8z"/>
	</g>
	<path class="st0" d="M252.7,145c0.1,0,0.3-0.1,0.4-0.2c0.2,1-0.1,2.5,1.1,3c2,0.8,4.1,0.7,6.2,1.1c2.1,0.3,4.3,0.7,6.4,0.4
		c0.8-0.5,1-1.5,1.4-2.4c0.1,0,0.4-0.1,0.5-0.2c-0.6,4.4-1.2,8.9-1.9,13.3c-1.3-0.2-2.5-0.5-3.7-0.8c0-0.1-0.1-0.4-0.1-0.5
		c1-0.1,2.4-0.1,3-1.2c0.8-1.5,0.9-3.3,1-5c-2-0.3-4-0.5-6-0.8c-0.4,1.5-0.8,3.2-0.3,4.7c0.5,0.6,1.2,1,1.7,1.6
		c-1.9-0.2-3.8-0.7-5.7-0.7c0-0.1,0.1-0.3,0.1-0.5c0.8-0.3,1.8-0.5,2.1-1.4c0.4-1.3,0.5-2.6,0.6-3.9c-1.9-0.2-3.9-0.7-5.8-0.4
		c-1.1,0.5-1.3,1.9-1.5,2.9c-0.3,1.7,0.6,3.4,2,4.3c0.6,0.4,1.5,0.7,1.9,1.4c-1.8,0-3.6-0.7-5.3-1.3C251.4,154,252,149.5,252.7,145
		L252.7,145z"/>
	<path class="st0" d="M155.3,145.8c0.3-0.3,0.5-0.5,0.8-0.8c0.6,1.2,1.1,2.5,0.9,3.8c-0.3,0.5-0.8,0.8-1.2,1.2
		c-0.1,1.5,0.8,3.1,0.3,4.6c-1.9,1.2-4.1,0.4-6.2,0.3c-0.2-1.5,0.1-3,0.3-4.6c0.2,0,0.6-0.1,0.7-0.1c0.5,0.1,0.9,0.1,1.4,0.2
		c-0.6,0.1-1.2,0.1-1.8,0.2c-0.1,0.7-0.4,1.3-0.3,2c0.4,0.9,1,1.8,1.7,2.5c0.5-0.6,0.5-1.4,0.7-2.1c0.5-0.7,1-1.2,1.3-2
		c-0.5-0.7-1.2-1.4-1-2.4C153.4,147.5,154.4,146.7,155.3,145.8L155.3,145.8z"/>
	<path d="M167.7,145c1.6,1.1,1.7,3.3,1.4,5C168.2,148.5,168,146.7,167.7,145z"/>
	<path class="st0" d="M28.7,146.7c1.7-0.8,3.7-0.4,5.5-0.2c0.6,4.6,1.5,9.2,1.9,13.8c-0.7-0.7-0.9-1.7-1.4-2.5
		c-2.1-0.3-4.2-0.1-6.3,0.2c-1.9,0.3-3.8,0.4-5.6,0.8c-0.7,0.2-1.6,0.4-1.9,1.2c-0.2,0.8,0,1.7-0.6,2.3c-0.9-4.4-1.3-8.9-2-13.3
		c1.2,0,2.3,0,3.5,0.4c-0.7,0.5-1.7,0.9-1.9,1.8c-0.2,1.7,0,3.4,0.3,5.1c2.1-0.1,4.2-0.5,6.2-0.8c-0.2-1.3-0.3-2.7-0.7-3.9
		c-0.5-1.1-1.7-1.3-2.7-1.8c2-0.2,4.1-0.4,6.1-0.7c-0.3,0.9-1.7,1-1.8,2.1c-0.1,1.4,0.1,2.8,0.4,4.2c1.6-0.2,3.3-0.3,4.9-0.7
		c0.9-0.2,1.6-1.1,1.6-2c0-1.6-0.4-3.3-1.6-4.4C31.5,147.2,30,147.2,28.7,146.7L28.7,146.7z"/>
	<path d="M76.2,147.2c1.4,0,1.6,1.7,1.4,2.7C76.6,149.4,76,148.3,76.2,147.2z"/>
	<path d="M209.3,150.2c-0.2-1.2,0.3-2.3,1.5-2.7C211,148.7,210.5,149.9,209.3,150.2z"/>
	<path class="st0" d="M18.4,149c1.3-0.4,2.7-0.3,4.1-0.3c0,0.2,0,0.6,0.1,0.8c-0.2,0-0.5-0.1-0.7-0.2C20.7,149.1,19.6,149,18.4,149z
		"/>
	<g>
		<path d="M86.3,149.9c1-0.3,1.9-0.8,2.8-1.2c0.3,1.1,0.9,2.2,1.1,3.3c-0.1,0.9-0.7,1.6-0.7,2.5c0.2,0.5,0.7,0.8,1.2,0.8
			c2.3,0.2,4.6-0.2,6.8,0.5c2.2,0.6,4.4,1.2,6.5,2c0,0.8-0.1,1.5-0.2,2.3c-2.9,0.3-5.8,1.3-8.3,2.9c-2.9,2-5.2,4.9-7.9,7.1
			c-1.8,0.2-3,1.7-4.4,2.8c-0.8,0.6-1.3,1.4-1.9,2.2c-2.3,1.3-4.8,2.1-7.4,2.5c0-2-1.2-4-3.1-4.8c-0.1-2.2-0.1-4.4-0.2-6.7
			c0-0.9,0.1-1.9,0.6-2.7c1.5-2.6,3.8-4.6,5.9-6.6c0.2,0.2,0.5,0.5,0.7,0.6c0.2,2.7,0.6,5.4,1,8.1c0.2,2.1,0.4,4.2,0.9,6.3
			c0-0.6-0.1-1.3-0.1-1.9c0.2,0.1,0.5,0.2,0.7,0.3c0,1.2-0.1,2.5-0.8,3.6c-1.8-0.1-1.5-2.1-1.5-3.3c0.2,0.7,0.4,1.5,0.7,2.2
			c0-0.9,0.2-1.8,0-2.7c-0.3-0.6-1-0.9-1.5-1.3c0.4,1.4,0.3,2.9,0.6,4.3c0.2,0.9,1.4,1.6,2.1,0.8c1.2-1.3,0.7-3.2,0.7-4.8
			c0-2.8-0.8-5.6-1-8.4c-0.1-1.7-0.9-3.3-0.5-4.9c0.8-0.9,1.6-1.8,2.2-2.9c0.6-0.8,0.8-1.9,1.4-2.6C84.1,150,85.2,150.2,86.3,149.9z
			"/>
		<path d="M196.8,151.9c0.4-1,0.8-1.9,1.1-2.9c1.7,0.9,3.6,1.8,5.6,1.6c0.8-0.2,1,0.6,1.2,1.1c0.7,1.6,1.8,3.1,3,4.4
			c-0.2,1.3-0.3,2.6-0.6,3.8c-0.3,1.5-0.4,2.9-0.7,4.4c-0.3,1.9-0.7,3.7-0.6,5.6c0.1,1.4-0.2,2.9,0.7,4.1c0.7,1,2.1,0.1,2.3-0.8
			c0.3-1.3,0.2-2.7,0.6-4c-0.5,0.2-1.3,0.3-1.4,1c-0.2,1-0.1,2-0.6,2.9c-0.3-1.7,0.2-3.3,0.4-4.9c0.3-3.5,1.3-6.8,1.3-10.3l0-0.3
			c0.2-0.1,0.5-0.3,0.7-0.4c1.9,2,4,3.9,5.5,6.2c0.4,0.6,0.7,1.3,0.7,2c0.1,2.5-0.1,5.1-0.1,7.6c-2,0.6-2.7,2.7-3.3,4.4
			c-2.2-0.3-4.3-0.9-6.3-1.9c-1-0.5-2.1-1-2.7-2.1c-1.3-1.4-2.8-2.6-4.4-3.7c-1.3-0.6-2.3-1.7-3.3-2.7c-1.2-1.2-2.5-2.3-3.8-3.4
			c-2.6-2-5.9-3.2-9.1-3.7c-0.1-0.7-0.2-1.5-0.3-2.2c2.4-0.8,4.8-1.5,7.3-2.1c2.1-0.4,4.2,0,6.3-0.2c0.5-0.1,1.1-0.4,1.1-1
			C197.2,153.6,196.5,152.8,196.8,151.9L196.8,151.9z"/>
		<path d="M131.9,150.1c1.7-0.4,3.4-0.5,5.2-0.4c-0.9,0.7-1.6,1.7-2.2,2.7c-0.1,0.9,0.1,1.7,0,2.6c-0.9-1-1.6-2-1.7-3.4
			c-0.2,0.9-0.2,1.7-0.1,2.6c-0.4,0.2-0.8,0.4-1.2,0.6C131.3,153.3,131.7,151.6,131.9,150.1z"/>
		<path d="M166.1,149.8c0.8,1.5,1.2,3.2,1.2,4.8C166.3,153.2,165.9,151.4,166.1,149.8z"/>
		<path d="M76.7,149.8c1.3,0.3,1.5,1.7,1.3,2.8C76.9,152.1,76.5,151,76.7,149.8z"/>
		<path d="M209,151.2c0.3-0.5,0.8-0.7,1.3-0.8c0,0.9-0.2,1.7-0.7,2.4c0.7,1,0,2.5-1.3,2.5c0-0.5,0.2-1.1,0.4-1.5
			C209.2,153,208.8,152.1,209,151.2L209,151.2z"/>
		<path d="M119.1,151.4c0.9,0.4,0.7,1.5,0.9,2.2C119.6,152.9,119.2,152.2,119.1,151.4z"/>
		<path d="M117.5,159.9c-1.1-2.7-0.8-6.1,1-8.4c-0.2,2.3-1.2,4.6-0.7,7c0.3,2,1.3,3.8,1.9,5.7C118.4,163.2,118.1,161.4,117.5,159.9z
			"/>
		<path d="M232.6,152.3c1,0.4,1.9,1.5,1.2,2.5C233.3,154,232.9,153.2,232.6,152.3z"/>
		<path d="M77.1,152.5c0.4,0.3,0.9,0.6,1.3,0.9c0,0.6,0,1.2,0,1.8C77.5,154.5,76.9,153.6,77.1,152.5z"/>
		<path d="M228,152.8c0.1,0,0.4,0,0.6,0c0.2,0.8,0.4,1.6,0.4,2.4C228.3,154.6,228.1,153.7,228,152.8L228,152.8z"/>
		<path d="M124.8,155.9c0.8-0.6,1.6-1.3,2.3-2.1c0,2.4,0.5,5.2,2.5,6.8c1.2,0.9,2.4,1.7,3.8,2.1c1.3,0.5,2.8,0.4,4.1,0.4
			c1.3,0,2.5-0.8,3.7-1.4c-0.2,0.6-0.3,1.1-0.5,1.7c0.7,0,1.4,0.2,2,0.7c0.9,0.6,1.9,0,2.6-0.6c0.4,0.1,0.8,0.1,1.2,0.2
			c-0.2-0.7-0.5-1.4-0.7-2.1c1.1,0.6,2.1,1.4,3.3,1.5c1.8,0.1,3.7,0.1,5.3-0.7c1.7-0.9,3.6-1.8,4.5-3.6c0.8-1.4,1-3.1,1-4.7
			c0.9,0.7,1.8,1.6,2.9,2c-0.1,0.9-0.1,1.8-0.1,2.8c-0.9,0.7-2.2,1-2.6,2.2c-0.3,0.7-0.5,1.3-0.8,2c-1.1,0.1-2.3,0.1-3.4,0.4
			c-0.9,0.4-1.5,1.2-2.2,1.9c-0.7,0.9-1.8,0.1-2.7,0c-1.5-0.4-2.4,1.3-3.7,1.7c-1.4-0.1-2.6-1.1-4-1.1c-1.4,0-2.6,1.1-4,1.1
			c-1.1-0.4-1.8-1.5-2.9-1.8c-1,0-2,0.6-3,0.6c-1-0.6-1.5-1.7-2.5-2.2c-1.2-0.4-2.4-0.3-3.6-0.5c-0.4-0.9-0.6-1.8-1.1-2.7
			c-0.7-0.6-1.5-0.9-2.3-1.3C124.1,158,123.9,156.7,124.8,155.9L124.8,155.9z"/>
		<path d="M77.6,155.1c0.5,0.3,0.9,0.6,1.4,0.9c0,0.5,0,1.1,0,1.6C77.8,157.4,77.5,156.2,77.6,155.1z"/>
	</g>
	<path class="st0" d="M123.5,156c0.4,0,0.9-0.1,1.3-0.1c-0.9,0.8-0.7,2.1-0.6,3.2c0.8,0.4,1.6,0.7,2.3,1.3c0.4,0.8,0.7,1.8,1.1,2.7
		c1.2,0.1,2.4,0.1,3.6,0.5c1,0.6,1.5,1.7,2.5,2.2c1,0,2-0.6,3-0.6c1.1,0.4,1.8,1.4,2.9,1.8c1.4,0,2.6-1.1,4-1.1c1.4,0,2.6,1.1,4,1.1
		c1.3-0.5,2.2-2.2,3.7-1.8c0.9,0.1,2,0.9,2.7,0c0.7-0.6,1.3-1.5,2.2-1.9c1.1-0.3,2.3-0.3,3.4-0.4c0.3-0.7,0.5-1.3,0.8-2
		c0.3-1.2,1.7-1.5,2.6-2.2c0-0.9,0-1.8,0.1-2.8c0.2,1,0.2,2.1,0.2,3.1c-0.6,0.8-2,0.9-2.3,2c-0.3,0.7-0.5,1.6-1,2.2
		c-1.1,0.4-2.4,0.2-3.5,0.6c-1.2,0.5-1.7,1.8-2.9,2.3c-1,0-1.9-0.6-2.9-0.6c-1,0.4-1.6,1.3-2.7,1.7c-1.5,0.3-2.8-1-4.3-1
		c-1.5,0-2.8,1.2-4.3,1c-1-0.3-1.7-1.2-2.6-1.6c-1.1,0-2.1,0.6-3.1,0.4c-1-0.5-1.6-1.6-2.6-2.1c-1.2-0.4-2.6-0.1-3.7-0.7
		c-0.8-0.9-0.6-2.5-1.8-3.1c-0.6-0.4-1.3-0.6-1.7-1.2C123.5,158,123.6,157,123.5,156L123.5,156z"/>
	<path d="M208,156.5c0.3-0.5,0.8-0.7,1.3-1c0.2,1.1-0.3,2.2-1.4,2.6C208,157.5,207.9,157,208,156.5L208,156.5z"/>
	<path d="M165.1,160.4c-0.2-1.5-0.3-3,0.1-4.4c0.4,1.8,0.8,3.6,0.5,5.5C165.5,161.1,165.2,160.8,165.1,160.4z"/>
	<g>
		<path class="st0" d="M166.8,157.4c0.3,0,0.8,0,1,0c-0.2,0.4-0.3,0.8-0.5,1.2C166.8,158.4,166.8,157.9,166.8,157.4z"/>
		<path class="st0" d="M169.5,159.1c0.1-0.7,0.4-1.4,1.2-1.5c0.3,0.4,0.4,0.9,0.2,1.4C170.4,159,169.9,159.1,169.5,159.1
			L169.5,159.1z"/>
		<path class="st0" d="M208.1,158.6c0.3-0.2,0.6-0.4,0.9-0.7c0,3.5-1.1,6.8-1.3,10.3c-0.2,1.6-0.7,3.3-0.4,4.9
			c0.5-0.9,0.4-2,0.6-2.9c0.2-0.6,0.9-0.8,1.4-1c-0.4,1.3-0.3,2.7-0.6,4c-0.2,0.9-1.6,1.8-2.3,0.8c-0.9-1.2-0.6-2.7-0.7-4.1
			c-0.1-1.9,0.4-3.8,0.6-5.6c0.2-1.5,0.4-3,0.7-4.4c0.1,0.3,0.2,0.5,0.3,0.8c0.1,0,0.4-0.1,0.5-0.2
			C208.6,160.1,208.4,159.2,208.1,158.6z"/>
	</g>
	<g>
		<path d="M78.2,158.3c0.3,0,0.7,0.1,1,0.1c0.5,0.6,0.4,1.4,0.5,2.1C78.5,160.4,78.2,159.3,78.2,158.3z"/>
		<path d="M121.1,158.1c0.5,0.4,0.4,1.1,0.4,1.7c0,1.6-0.2,3.2,0.5,4.7c0.6,1.5,1.9,2.5,2.7,3.8c-0.8-0.1-1.7-0.1-2.2-0.9
			c-0.9-1.2-2.2-2.6-2-4.2C120.5,161.5,120.5,159.8,121.1,158.1L121.1,158.1z"/>
		<path d="M168.2,163c1.3-1.6,3-3,4.7-4.1C172.1,160.9,170.7,163.3,168.2,163z"/>
		<path d="M208.1,158.6c0.3,0.6,0.5,1.6-0.3,1.9C206.9,160.2,207.4,158.9,208.1,158.6z"/>
		<path d="M110.6,159.5c3.7,0.7,6.4,3.3,9.3,5.5c0.5,0.4,0.7,1,1,1.6c-2.2-1.1-3.9-3-5.8-4.5C113.8,160.9,112.1,160.4,110.6,159.5z"
			/>
		<path d="M95,163.8c2.7-1.9,5.9-3.1,9.1-3.4c2.8-0.2,5.8,0.8,7.6,3.1c1.7,2,2.3,4.7,1.9,7.2c-0.8,2.6-3.6,4.6-6.3,3.9
			c-1.6-0.6-1.7-2.5-1.9-3.9c-1.5,0.8-1.9,2.7-1.6,4.3c0.5,2.5,3,3.9,5.2,4.6c0.1-0.4,0.1-0.8,0.2-1.2c1,0.1,1.8,0.6,2.7,1
			c0.2-0.2,0.4-0.4,0.7-0.6c2.3,1.2,5.3,0.1,7.4,2.1c-1.6,0.3-3.2,0.5-4.7,0.6c-2.8,0.3-5.7,0.4-8.3-0.8c-2.6-1.3-4.8-3.9-4.5-7
			c-0.1-2.3,2.1-4.8,4.5-4.3c1.4,0.3,1.6,1.9,1.6,3.1c-0.7-0.2-1.4-0.4-2.1-0.6c0.3,0.7,0.7,1.6,1.6,1.7c1.7,0.4,3.2-1,3.8-2.5
			c0.8-1.7,0.2-3.7-0.6-5.3c-1.2-2.4-3.8-3.8-6.5-3.7c-2.2,0.1-4.4,0.8-6.1,2.2c-1.1,1-1.7,2.6-1.4,4.1c0.2,0.9,0.9,1.5,1.5,2.1
			c-0.6,0.8-1.6,1-2.5,1.1c0.2,0.9,1,1.4,1.7,2c-0.6,0.4-1.2,0.9-1.9,0.8c-0.7,0.1-1.2-0.6-1.7-1c-0.4-0.4-1-0.5-1.5-0.8
			c0-0.9-0.1-1.7,0-2.5c0.2-0.8,0.8-1.5,1.3-2.3c-0.3,0.1-0.6,0.2-0.9,0.3c-0.8,1.7-1.1,3.6-1.6,5.4c-0.4-0.4-0.6-0.9-0.8-1.4
			c-0.3,0.4-0.5,0.8-0.8,1.2c-0.9-0.7-1.6-1.5-2.3-2.4C90,168.3,92.5,166,95,163.8L95,163.8z"/>
		<path d="M121.9,160.3c0.6,0.9,1,2,1.3,3.1C122.5,162.5,121.5,161.5,121.9,160.3z"/>
		<path d="M175.1,163.3c1.7-2,4.3-2.9,6.9-2.9c2.3,0.1,4.6,0.7,6.7,1.7c3.9,1.6,6.4,5.2,9.5,7.8c-0.7,1.4-2.3,2-3,3.3
			c-0.8-1.6-0.8-3.4-1.6-5c-0.2-0.4-0.6-0.5-0.9-0.7c0.4,0.8,0.9,1.5,1.2,2.3c0.1,0.8,0.1,1.6,0,2.4c-0.6,0.5-1.5,0.5-2,1.2
			c-0.8,1-2.2,0.6-3.1-0.1c0.3-0.9,1.3-1.2,1.6-2.2c-0.9-0.1-1.9-0.3-2.5-1.2c0.5-0.6,1.2-1,1.4-1.7c0.1-1.2,0.2-2.5-0.6-3.5
			c-1.9-2.4-5.3-3.2-8.3-2.8c-3.5,0.5-6.1,4.1-5.8,7.6c0.3,1.8,1.5,3.8,3.6,3.6c1.1,0.1,1.8-1,1.9-2c-0.6,0.6-1.1,1.2-2,1
			c-0.1-0.9-0.1-1.8,0.5-2.5c0.9-1.2,2.7-1.1,3.8-0.2c1.4,0.9,2,2.6,2.1,4.2c0,2-1.1,4-2.6,5.3c-2.2,1.9-5.3,2.8-8.1,2.5
			c-2.2-0.4-4.5-0.6-6.7-1c2-1.8,4.8-0.9,7-2.1c0.2,0.2,0.4,0.4,0.7,0.6c0.8-0.5,1.7-0.9,2.6-1c0.1,0.4,0.2,0.8,0.3,1.3
			c2-0.7,4.1-1.8,5-3.9c0.2-1.5,0.3-3.1-0.6-4.3c-0.2-0.3-0.5-0.4-0.8-0.5c0,1.2-0.1,2.6-1.1,3.4c-0.9,0.7-2.1,0.6-3.1,0.4
			c-2.3-0.7-4.1-2.9-3.9-5.4C172.9,167.1,173.8,165,175.1,163.3L175.1,163.3z"/>
		<path d="M79.6,163c-1-0.4-1.3-1.7-0.8-2.6C79.6,160.9,80.5,162.1,79.6,163z"/>
		<path d="M207.3,161.5c0.3-0.1,0.7-0.3,1-0.4c-0.1,0.8-0.3,1.7-1.2,2C207.2,162.6,207.3,162,207.3,161.5z"/>
	</g>
	<path class="st0" d="M249.1,165.1c0.4-1.2,0.6-2.5,1.4-3.5c0.2,1.1-0.5,2.6,0.7,3.3c1.8,1,3.9,1.3,5.8,2c2,0.5,3.8,1.4,5.9,1.5
		c1.4,0.1,1.7-1.7,2.6-2.4c-0.5,2.2-1.3,4.2-1.9,6.3c-0.6,1.9-1.1,4.1-2.8,5.4c-1.3,1.1-3.3,0.6-4.5-0.5c-0.8-0.8-1-2-1.3-3
		c-3.4,0.5-7.1,1.4-9.5,4.1c-0.3,0.4-0.7,0.7-1.1,0.9c0.5-2.2,1.3-4.7,3.4-5.9c2-1.1,4.2-1.3,6.4-1.8c0.9-0.2,1.3-1.2,1.6-2
		c-1.8-0.6-3.7-1.4-5.6-1.4c-1.5,0.2-1.6,2-2.7,2.7C247.8,168.9,248.6,167.1,249.1,165.1L249.1,165.1z"/>
	<path class="st0" d="M98.6,164c1.7-1.4,3.9-2.1,6.1-2.2c2.6-0.1,5.3,1.4,6.5,3.7c0.8,1.6,1.4,3.6,0.6,5.3c-0.5,1.5-2.1,2.9-3.8,2.5
		c-0.9-0.1-1.3-1-1.6-1.7c0.7,0.2,1.4,0.4,2.1,0.6c0-1.2-0.2-2.8-1.6-3.1c-2.5-0.5-4.6,2-4.5,4.3c-0.3,3,1.9,5.7,4.5,7
		c2.6,1.3,5.5,1.1,8.3,0.8c-0.9,0.2-1.9,0.3-2.5,1c-0.8-0.4-1.7-0.6-2.6-0.3c-3.6-0.3-7.2-2.8-8.2-6.4c-0.7-2.6,0.4-5.7,2.9-6.8
		c1.4-0.7,3.3-0.3,4,1.1c0.6,0.9,0.3,2.1,0.1,3.1c0.9-0.5,1.9-1,2.3-2.1c1.1-2.7-0.3-6.1-2.8-7.5c-1.8-1.2-4.1-1.1-6.1-0.6
		c-1.4,0.4-2.9,1.2-3.8,2.4c-0.6,0.8-0.6,2-0.7,3c-0.1,0-0.3-0.1-0.5-0.2C96.9,166.6,97.5,165,98.6,164L98.6,164z"/>
	<g>
		<path d="M159.7,166.8c0-1.9,1.3-3.7,2.7-5c0,1.6-0.4,3.2-1.5,4.4C160.6,166.6,160.1,166.7,159.7,166.8L159.7,166.8z"/>
		<path d="M102.2,162.9c2-0.6,4.3-0.6,6.1,0.6c2.5,1.4,4,4.8,2.8,7.5c-0.4,1-1.4,1.6-2.3,2.1c0.2-1,0.5-2.2-0.1-3.1
			c-0.7-1.4-2.7-1.8-4-1.1c-2.5,1.1-3.6,4.2-2.9,6.8c1,3.6,4.6,6.1,8.2,6.4c0.8,0.2,1.8-0.2,2.3,0.5c-2.6,1.3-5.6,2.3-8.5,1.4
			c-2-0.5-3.7-1.8-5.4-2.9c-2.6-1.5-4.5-3.8-6.6-5.9c-0.6-0.7-1.4-1.3-1.6-2.3c0.4,0.3,0.9,0.6,1.3,0.9c0.2-0.4,0.5-0.8,0.7-1.1
			c1.1,0.3,1.9,0.8,2.7,1.5c1.2,0.9,2.6-0.1,3.5-1c-0.6-0.5-1.2-1-1.7-1.5c0.7-0.3,1.6-0.5,2.1-1.2c0.6-1-1-1.4-1.2-2.3
			c0-1,0-2.1,0.7-3C99.3,164.1,100.7,163.3,102.2,162.9L102.2,162.9z"/>
		<path d="M179.8,162.6c2.6-0.5,5.3,0,7.5,1.6c1.1,0.8,1.9,2.1,1.7,3.5c0.1,1.1-1,1.7-1.6,2.3c0.4,1,1.5,1.4,2.4,2
			c-0.5,0.5-1.3,0.7-1.5,1.3c0.5,0.7,1.3,1.1,2.1,1.3c1.1,0.2,1.7-0.9,2.5-1.4c0.5-0.2,1.1-0.4,1.7-0.6c0,0.4,0.1,0.8,0.1,1.1
			c-2.5,2.7-4.9,5.6-8.2,7.5c-1.9,1.3-4,2.7-6.4,2.8c-2.5,0.2-4.9-0.6-7-1.9c2.3,0,4.8-0.1,6.9-1.2c2.5-1.2,4.4-3.5,4.9-6.2
			c0.2-2.2-0.7-4.7-2.8-5.7c-1.2-0.6-2.9-0.6-3.8,0.5c-0.9,0.9-0.8,2.4-0.2,3.4c-1.3-0.1-2.3-0.9-2.7-2.1c-0.9-1.7-0.3-3.7,0.5-5.3
			C176.7,164.1,178.2,163.2,179.8,162.6L179.8,162.6z"/>
		<path d="M79.8,165.4c-0.9-0.7-1.1-1.7-0.8-2.7C80,163.1,80.9,164.6,79.8,165.4z"/>
	</g>
	<path class="st0" d="M163,163.5c0.2-0.1,0.7-0.3,0.9-0.4c0.6,0.6,0.3,1.4-0.4,1.8C162.9,164.6,163.1,163.9,163,163.5L163,163.5z"/>
	<path d="M206.6,165.7c0.1-0.9,0.1-2.1,1.3-2.2C207.9,164.5,207.4,165.2,206.6,165.7z"/>
	<path class="st0" d="M165.4,166.1c0.1-0.8,0.8-1,1.5-0.9c0,0.2,0.1,0.7,0.1,0.9C166.4,166.4,165.9,166.2,165.4,166.1L165.4,166.1z"
		/>
	<path class="st0" d="M23.1,167.6c1.1-1.9,4-2.6,5.8-1.3c1.5,1.1,2.7,2.6,3.3,4.4c-0.9-0.6-1.6-1.5-2.6-1.9
		c-1.7-0.4-3.7-0.1-4.8,1.4c-0.8,1.2-0.6,2.7-0.3,4c2.9-0.5,5.6-1.6,8.5-2.4c1.5-0.5,3.1-0.7,4.4-1.6c1-0.9,0.6-2.4,0.4-3.5
		c0.7,0.1,0.7,1,0.9,1.5c0.7,2.6,1.7,5,2.3,7.6c-1-0.6-1.2-2.5-2.7-2.3c-3.2,0.4-6.2,1.7-9.4,2.5c-1,0.4-2.4,0.5-2.9,1.6
		c-0.1,0.9,0,1.7,0,2.6c-0.9-1.5-1.2-3.4-1.8-5C23.4,172.8,22,170.1,23.1,167.6L23.1,167.6z"/>
	<path d="M79.2,165.4c0.5,0.2,0.9,0.4,1.3,0.6c0,0.6,0,1.2,0,1.9c-0.4-0.3-0.9-0.5-1.2-0.9C79.3,166.5,79.2,166,79.2,165.4z"/>
	<path class="st0" d="M130,165.9c1.1,0.5,2,1.3,2.7,2.2C131.7,167.5,130.6,166.8,130,165.9z"/>
	<g>
		<path d="M153.1,169.1c1.1-1.2,2.5-2.2,3.9-2.9c-0.8,1.4-1.8,2.7-3.1,3.8c-0.4,0.4-1,0.5-1.5,0.7
			C152.5,170.1,152.7,169.5,153.1,169.1z"/>
		<path d="M206.4,168.3c-0.1-0.9,0-2.2,1.2-2.2C207.5,167,207.1,167.8,206.4,168.3z"/>
		<path d="M163.1,168.8c1.9-1.3,4.2-2,6.4-2.4C168.2,168.5,165.5,169,163.1,168.8z"/>
		<path d="M128.1,167.2c1.1,0.7,2.1,1.6,2.8,2.7C129.4,169.8,128.5,168.6,128.1,167.2z"/>
	</g>
	<path class="st0" d="M157.2,167.5c0.5-0.1,0.9-0.1,1.4,0.1c-0.1,0.8-0.8,1.1-1.5,1.2C157,168.4,157.1,168,157.2,167.5z"/>
	<path d="M79.4,167.8c1.1-0.3,1.7,1.6,0.7,2C79.3,169.5,79.6,168.4,79.4,167.8z"/>
	<path d="M206.4,168.7c0.3-0.1,0.6-0.3,0.9-0.4c-0.1,0.4-0.1,0.9-0.2,1.3c-0.2,0.1-0.6,0.2-0.8,0.3
		C206.3,169.5,206.4,169.1,206.4,168.7L206.4,168.7z"/>
	<path class="st0" d="M77.4,168.6c0.5,0.4,1.2,0.7,1.5,1.3c0.2,0.9,0.1,1.8,0,2.7c-0.2-0.7-0.4-1.5-0.7-2.2c0.1,1.2-0.3,3.3,1.5,3.3
		c0.7-1.1,0.8-2.3,0.8-3.6c0-0.5,0.2-0.9,0.4-1.3c-0.1,1.6,0.5,3.6-0.7,4.8c-0.7,0.8-2,0.1-2.1-0.8C77.7,171.4,77.7,170,77.4,168.6z
		"/>
	<g>
		<path d="M118.3,168.7c1.9-0.3,3.9-0.1,5.8,0.2c2.3,0.3,4.6,0.7,6.7,1.8c2.8,1.4,5.9,2.3,8.1,4.7c-2.8-1-5.7-2-8.3-3.5
			c-3-1.6-6.4-1.4-9.6-1.8c-0.9,0-1.8-0.1-2.6,0.3c-0.5,0.4-1,0.9-1.4,1.4C117.2,170.6,117.3,169.3,118.3,168.7L118.3,168.7z"/>
		<path d="M146.1,171.7c1.1-1.3,2.5-2.4,4.1-3.1c-1.1,1.8-2.4,3.8-4.5,4.5C145.8,172.6,145.7,172.1,146.1,171.7L146.1,171.7z"/>
		<path d="M256.3,169.9c2.3,0.3,4.6,1.2,6.8,1.9c-0.3,1.3-1.1,2.6-2.3,3.2c-1.5,0.7-3.3,0-4.2-1.4
			C255.9,172.5,256.2,171.1,256.3,169.9L256.3,169.9z"/>
	</g>
	<path class="st0" d="M160.3,171.2c0-0.5-0.1-1,0.5-1.1c0.1,0,0.3,0.1,0.4,0.1c0.1,0,0.3,0.1,0.5,0.1c0,0.2,0.1,0.5,0.2,0.7
		C161.4,171.3,160.8,171.2,160.3,171.2L160.3,171.2z"/>
	<path d="M206.4,170.7c0.1-0.1,0.3-0.2,0.4-0.3c0,0.8,0,1.6,0,2.4c0.1,0.1,0.4,0.4,0.5,0.6c0.3-0.2,0.6-0.3,0.9-0.5
		c0.1-0.7,0.1-1.5,0.2-2.2c0.3,1,0.3,2.2-0.3,3.1c-0.3,0.2-0.7,0.3-1.1,0.4C206.3,173.2,206,171.8,206.4,170.7z"/>
	<path class="st0" d="M149.6,170.9c0.4,0,0.7-0.1,1.1-0.1c-0.1,0.3-0.1,0.7-0.2,1c-0.3,0-0.7,0.1-1,0.1
		C149.5,171.6,149.6,171.2,149.6,170.9z"/>
	<g>
		<path d="M136.2,171.3c2.2,1.2,3.8,3.2,5.7,4.9c-0.6,0.6-1.2-0.1-1.7-0.5C138.6,174.4,137.1,173,136.2,171.3z"/>
		<path d="M198.4,172.9c0.4-0.6,0.8-1.1,1.4-1.4c-0.2,0.5-0.4,1.1-0.6,1.6c0.5-0.2,1-0.5,1.4-0.8c-0.2,0.5-0.4,1-0.5,1.5
			c0.6-0.3,1.1-0.6,1.7-0.9c-0.3,0.6-0.7,1.1-1.2,1.6C199.8,174.2,199.1,173.5,198.4,172.9L198.4,172.9z"/>
		<path d="M156.3,172.6c2.6-0.7,5.3-0.2,7.8,0.3c-2,0.7-4.1,0.9-6.2,0.6C157.3,173.5,156.8,173,156.3,172.6L156.3,172.6z"/>
	</g>
	<path class="st0" d="M151.6,173.4c0.5,0,1,0,1.4,0.1c0,0.3,0.1,0.7,0.1,1C152.4,175,151.6,174.1,151.6,173.4z"/>
	<g>
		<path d="M197.3,174c0.3-0.3,0.8-0.2,1.2-0.3c-0.2,0.6-0.8,0.8-1.2,1.1c0.4,0.5,0.9,0.9,1.5,1.2c0.2-0.5,0.4-1.1,0.7-1.5
			c0.2,0.6,0.3,1.3-0.2,1.8c-0.8,0.2-1.7,0-2.2-0.7C197,175,196.8,174.3,197.3,174z"/>
		<path d="M200.1,178c1-1.3,2.1-2.4,3.2-3.6c2.3,1.2,4.6,2.6,7.2,3.1c1.7,0.3,3.4,0.9,5.2,0.7c1.2-0.4,2.5-0.8,3.7-1.2
			c0-0.6-0.5-1.4,0-1.9c0.6-0.5,1.7-0.3,1.8,0.5c0.1,0.7,0.2,1.6-0.5,2.1c-0.9,0.9-2.3,0.8-3.5,0.8c0.5,0.3,1,0.7,1.3,1.2
			c-0.9,0.1-1.7,0.1-2.6,0.1c0.4,0.4,0.7,0.8,1,1.3c-1.1,0.2-2.3,0.4-3.5,0.1c-0.8-0.3-1.4-0.8-2.2-1.1c0.7,1,2,1.4,2.4,2.7
			c-2.9,0-5.9-1.2-7.7-3.6c0,0.9,0.1,1.9,0.1,2.8c-0.9-0.2-1.8-0.5-2.6-1C202.3,180.1,200.9,179.3,200.1,178L200.1,178z"/>
		<path d="M65.6,175.1c0.5-0.6,1.2-0.2,1.8-0.1c0,0.6-0.1,1.2-0.2,1.8c4.9,2.2,10.6,0.6,15.1-1.9c1.3,1.2,2.4,2.6,3.6,3.9
			c-1.6,1.4-3.2,2.8-5.4,3.1c0-0.9,0-1.9,0-2.8c-1.1,1.3-2.5,2.5-4.2,3c-1.1,0.2-2.4,0.9-3.5,0.3c0.7-0.9,1.6-1.6,2.4-2.4
			c-1,0.4-1.9,1.1-3,1.1c-0.9,0.1-1.8-0.1-2.6-0.3c0.3-0.4,0.5-0.8,0.8-1.3c-0.8,0-1.6-0.1-2.4-0.1c0.4-0.4,0.7-0.7,1.1-1.1
			c-1.2-0.1-2.6-0.1-3.5-1.1C65.3,176.7,65.4,175.8,65.6,175.1L65.6,175.1z"/>
		<path d="M147.5,175.2c2.3,0.1,4.6,0.3,6.7,1.1C152,176.8,149.2,176.9,147.5,175.2z"/>
		<path d="M195.7,175.5c1.1,0.3,1.9,1.1,2.5,2c-0.7,0-1.5-0.1-2.2-0.1c0.4,0.4,0.8,0.7,1,1.2c-1.1-0.3-2-1-2.4-2
			c0.6,0.1,1.3,0.2,1.9,0.3C196.3,176.5,196,176,195.7,175.5L195.7,175.5z"/>
		<path d="M87.9,178.6c0.2-1.1,0.7-2.1,1.6-2.9c-0.1,0.7-0.4,1.3-0.6,1.9c0.5-0.3,1.1-0.6,1.6-0.8c0,0.1,0.1,0.4,0.2,0.5
			C89.7,177.8,88.9,178.3,87.9,178.6L87.9,178.6z"/>
		<path d="M142,177c0.4-0.3,0.8-0.3,1.2,0c1.3,0.7,2.5,1.5,3.6,2.3c-0.4,0.1-0.9,0.5-1.4,0.2C144.2,178.8,143,178,142,177z"/>
		<path d="M192.9,178.4c0.5-0.3,1-0.7,1.5-1c-0.2,0.5-0.4,1-0.6,1.5c0.5-0.2,0.9-0.4,1.4-0.6c-0.2,0.4-0.5,0.9-0.7,1.3
			c0.6,0,1.1-0.3,1.7-0.5c-0.3,0.6-0.8,1-1.4,1.3C194.1,179.9,193.2,179.3,192.9,178.4L192.9,178.4z"/>
		<path d="M90.1,180.8c0.6-0.9,1.2-1.9,2.3-2.3C92,179.5,91.2,180.5,90.1,180.8z"/>
		<path d="M125.7,178.5c3-0.2,6.1-0.3,9.1-0.1c2.6,0.6,4.8,2.5,6.6,4.5c0.8,1.1,1.8,2.3,1.8,3.7c0.1,0.9-0.8,1.9-1.7,1.8
			c-0.8,0.1-1.5-0.7-1.4-1.4c0.3-0.8,1.3-0.6,1.9-0.8c-1.1-1.3-2.3-2.7-3.9-3.4c-1.1-0.3-2.4-0.2-3.4,0.5c0,0.1-0.1,0.5-0.1,0.6
			c0.4,0,0.9,0.1,1.3,0.1c0,0.3,0.1,0.8,0.1,1.1c-1,0.9-2.9,0.4-3.1-1c0.2-1.5,1.6-2.2,2.4-3.4c-1.5,0.6-3.3,2.3-4.8,1
			c1-0.8,2.2-1.3,3.3-2.1c-2-0.2-4,0-6.1,0.2C126.7,180,126,179.3,125.7,178.5L125.7,178.5z"/>
		<path d="M150.1,179.2c2-1.1,4.4-0.8,6.6-0.8c1.6,0.1,3.3-0.1,4.8,0.5c-0.6,0.4-1.1,1.3-2,1.1c-2.1-0.2-4.3-0.4-6.4-0.3
			c0.9,0.9,2.3,1.1,3.2,2.1c-0.5,0.7-1.4,0.5-2.1,0.4c-1-0.4-1.8-1-2.7-1.4c0.7,1.1,2.1,1.8,2.3,3.2c0.3,1.5-1.9,2.2-2.9,1.3
			c-0.1-0.4,0-0.8,0-1.2c0.5,0,0.9-0.1,1.4-0.1c-0.7-1.4-2.6-1.4-3.9-1c-1.5,0.7-2.7,2-3.7,3.4c0.6,0,1.4-0.2,1.8,0.4
			c0.1,0.4,0.1,0.9,0,1.3c-0.6,0.4-1.6,0.7-2.2,0.1c-1-0.6-0.8-2-0.5-2.9C145.2,182.7,147.4,180.5,150.1,179.2z"/>
		<path d="M190.8,180.4c0.5-0.4,0.9-0.8,1.5-1.1c0.7,0.4,1.6,0.8,1.5,1.8c0.1,0.7-0.7,1-1.1,1.3C192,181.7,191.4,181.1,190.8,180.4z
			"/>
		<path d="M93.9,180.1c0.5,0.4,1.5,0.7,1.4,1.5c-0.5,0.7-1.1,1.3-1.6,1.9c0-0.6,0-1.1,0-1.6c-0.5,0.2-1,0.5-1.5,0.7
			C92.5,181.6,93.2,180.8,93.9,180.1z"/>
		<path d="M127.5,180.4c1.4-0.1,2.9-0.3,4.3-0.3c-0.6,0.5-1.3,1.1-1.9,1.6c0.1,0.2,0.3,0.5,0.4,0.7c0.9,0.2,1.8,0.1,2.6,0
			c-0.2,0.8-0.9,1.8-0.3,2.6c0.5,1,1.9,1.1,2.9,0.8c1.2-0.5,0.5-1.9,0.2-2.7c2.1-0.5,4,0.9,5.1,2.5c-0.6,0.6-1.5,1.2-1.2,2.1
			c0.6,1.6,2.7,1.1,3.7,0.2c0.7,0.4,1.3,1,2.1,0.9c1,0.1,2-1,1.7-2c-0.3-0.5-0.8-0.9-1.2-1.2c1.2-1.6,3.1-3,5.2-2.4
			c-0.3,0.5-0.6,1-0.7,1.6c0.3,1.6,2.7,1.5,3.6,0.4c0.8-0.8,0.1-1.8-0.1-2.7c0.9,0.1,1.8,0.1,2.7-0.1c0-0.3,0.1-0.6,0.1-0.9
			c-0.5-0.5-1.1-1-1.7-1.4c1.6,0,3.1,0.2,4.7,0.3c-1.5,1.9-3,3.8-4.8,5.3c-2,1.6-4.2,3-6.6,3.6c-4.1,1.1-8.7,0.8-12.4-1.4
			c-2.1-1.2-4-2.6-5.6-4.4C129.2,182.5,128.3,181.5,127.5,180.4L127.5,180.4z"/>
	</g>
	<path class="st0" d="M191.7,180.1c1-0.4,1.9,0.8,1.3,1.7C192.4,181.3,191.8,180.8,191.7,180.1z"/>
	<path d="M189.8,180.8c1,0.4,1.8,1.4,2.2,2.4c-0.6-0.1-1.3-0.3-1.9-0.5c0.2,0.5,0.5,1,0.6,1.5c-0.9-0.5-1.8-1.3-1.9-2.5
		c0.6,0.2,1.2,0.4,1.8,0.6C190.4,181.8,190.1,181.3,189.8,180.8L189.8,180.8z"/>
	<path class="st0" d="M93.9,181.1c0.3-0.4,0.9,0.2,0.7,0.6C94.3,182.1,93.6,181.5,93.9,181.1z"/>
	<path class="st0" d="M239.7,188c0.4-2.5,2-4.8,4.1-6.2c1.2,0.4,2.5,0.7,3.7,1.1c0.3,0.1,0.6,0.3,0.8,0.6c-1.8,0-3.7,0-5.3,0.9
		c-1.1,0.7-2.1,1.7-2.1,3.1c-0.1,1.7,1.7,2.9,3.3,2.6c2.8-0.6,4.6-3.4,7.5-3.7c2.3-0.1,4.2,2,4.2,4.2c0.1,2.5-1.4,4.8-3.4,6.2
		c-1.3-0.7-2.8-1.1-3.6-2.3c1.3,0,2.7,0.5,4,0.1c1.4-0.5,2.3-2.1,1.7-3.5c-0.7-1.2-2.2-1.9-3.5-1.3c-2.2,0.7-3.8,2.6-6,3.3
		c-1.8,0.7-4-0.2-5-1.9C239.7,190.1,239.5,189,239.7,188L239.7,188z"/>
	<g>
		<path d="M96.8,182.3c0.6,0.4,1.2,0.8,1.8,1.3c-1.2,0-1.6,1.2-2.6,1.7C96.4,184.3,97.1,183.4,96.8,182.3L96.8,182.3z"/>
		<path d="M186.7,183.4c0.5-0.3,1-0.6,1.5-0.8c-0.2,0.5-0.4,0.9-0.7,1.3c0.4-0.1,0.9-0.2,1.3-0.3c-0.2,0.4-0.5,0.8-0.7,1.2
			c0.6-0.1,1.1-0.1,1.7-0.2c-0.4,0.5-1,0.8-1.6,1.1C187.7,185,187,184.3,186.7,183.4L186.7,183.4z"/>
		<path d="M125.7,184.8c0.7-0.7,1.5-1.6,2.5-1.9c-0.3,0.8-1,1.3-1.5,1.8c0.2,0.4,0.3,0.9,0.5,1.3
			C126.6,185.8,126.1,185.3,125.7,184.8L125.7,184.8z"/>
		<path d="M157.9,184.8c0.5-0.5,0.9-1.3,1.8-1.1c0.8,0.2,1.4,1.1,1.2,1.9c-0.2,0.4-0.6,0.7-0.9,1
			C159.3,186.1,158.6,185.5,157.9,184.8z"/>
	</g>
	<path class="st0" d="M158.8,184.6c0.5-0.6,1.1,0,1.5,0.3c0,0.2,0,0.7,0,0.9C159.6,185.7,158.9,185.3,158.8,184.6z"/>
	<g>
		<path d="M184.5,184.7c0.5-0.2,1-0.5,1.5-0.7c0.3,0.3,0.6,0.5,0.9,0.8c-0.3,0.8-0.7,1.6-0.9,2.5
			C185.4,186.5,184.9,185.7,184.5,184.7L184.5,184.7z"/>
		<path d="M99.1,186.2c0.3-0.7,0.6-1.5,1.4-1.7c-0.2,0.9-1.3,1.8-0.4,2.7c0.5-0.6,0.8-1.2,1.2-1.8c0.2,0,0.5-0.1,0.7-0.1
			c-0.5,0.8-0.7,2.5-2,2.3C99.3,187.5,98.8,186.7,99.1,186.2L99.1,186.2z"/>
		<path d="M175,187.4c0.2-1,0.8-2,1.4-2.8C176.8,185.7,175.8,186.8,175,187.4z"/>
	</g>
	<path class="st0" d="M185.6,184.8c0.5-0.2,0.7,0,0.5,0.5C185.5,185.5,185.4,185.3,185.6,184.8z"/>
	<g>
		<path d="M177.1,185.3c0.1,0,0.4-0.1,0.6-0.1c0.1,0.5,0.3,1,0.4,1.6c0.3-0.5,0.6-1,1-1.4c0,1-0.3,2-0.6,2.9
			c-0.7-0.3-0.7-1.1-0.9-1.7c-0.2,0.4-0.5,0.9-0.7,1.3l-0.4-0.3C176.7,186.9,176.9,186.1,177.1,185.3L177.1,185.3z"/>
		<path d="M182.4,185.6c0.4-0.5,1.3-0.3,1.9-0.5c-0.4,0.4-0.8,0.8-1.2,1.1c0.5,0,1,0,1.6,0.1c-0.4,0.3-0.9,0.6-1.4,0.9
			c0.6,0.1,1.2,0,1.8,0.1c-0.5,0.6-1.2,0.7-1.9,0.9C182.8,187.3,182.4,186.5,182.4,185.6L182.4,185.6z"/>
		<path d="M103.4,185.6c0.6,0,1.2,0,1.9,0c0,0.1,0,0.4,0,0.5c-0.5,0-0.9,0.1-1.4,0.2c0.4,0.3,0.9,0.5,1.3,0.8
			c-0.4,0.1-0.9,0.1-1.3,0.2c0,0.8,1.2,0.5,1.6,1.1c-0.7,0-1.4,0-2.1,0C103.3,187.5,103.3,186.5,103.4,185.6z"/>
		<path d="M128.2,187.9c0.2-1.2,1.4-1.9,2.4-2.4C130.3,186.6,129.2,187.3,128.2,187.9z"/>
		<path d="M179.7,185.7c0.7,0,1.4,0,2.1,0.3c0.1,0.6,0.1,1.2,0.1,1.9c-0.5,0.6-1.3,0.6-2,0.7C179.7,187.6,179.7,186.6,179.7,185.7
			L179.7,185.7z"/>
	</g>
	<path class="st0" d="M41.8,187.5c1.3-0.6,2.6-1.1,4-1.4c1.8,2.7,3.4,5.6,5.2,8.3c0.7,1.2,1.5,2.3,2.1,3.6c-1.1-0.4-1.8-2-3.2-1.5
		c-2,0.7-3.7,1.9-5.5,2.9c-1.7,1-3.6,1.7-5,3.2c-0.5,1,0.1,2.2,0.3,3.2c-0.3-0.3-0.7-0.5-0.9-0.9c-2.1-3.6-4.4-7.1-6.5-10.6
		c1.3-0.6,2.5-1.3,3.9-1.5c-0.6,1-1.8,1.7-1.6,3c0.3,1.7,1.5,3.1,2.3,4.5c1.8-0.9,3.5-2,5.3-2.9c-0.3-1.3-1.2-2.4-2-3.4
		c-0.8-0.9-2-0.7-3.1-0.7c0.4-0.6,1-0.8,1.6-1.1c1.2-0.6,2.3-1.3,3.6-1.8c-0.4,0.9-1.3,1.7-0.9,2.8c0.5,1.3,1.3,2.4,2,3.5
		c1.5-0.9,3.1-1.6,4.5-2.7c0.6-0.5,0.8-1.4,0.4-2.1c-0.6-1.6-1.8-3.2-3.5-3.6c-1.3-0.4-2.6,0-3.9,0.1
		C41.2,188,41.4,187.7,41.8,187.5L41.8,187.5z"/>
	<path d="M156.1,186.1c1.1,0.4,1.9,1.4,2.3,2.4c-0.6-0.1-1.1-0.2-1.6-0.4c0.1,0.5,0.1,0.9,0.2,1.4c-0.8-0.7-1.5-1.5-2-2.4
		c0.7,0,1.4,0.3,2,0.5C156.6,187.1,156.3,186.6,156.1,186.1z"/>
	<path class="st0" d="M180.3,186.1c0.2,0,0.7,0.1,0.9,0.2c0,0.5,0,1,0.1,1.5c-0.2,0-0.7,0.1-0.9,0.1
		C180.3,187.3,180.3,186.7,180.3,186.1L180.3,186.1z"/>
	<path d="M130.4,189.2c0.4-0.8,1-1.4,1.6-2c0.5,0.4,1.1,0.8,1.4,1.3c-0.5,0.6-0.9,1.3-1.4,1.9C131.4,190.1,130.4,190,130.4,189.2z"
		/>
	<path class="st0" d="M132,188.3C133,187.8,132.1,189.4,132,188.3z"/>
	<path class="st0" d="M131.4,189.1c0.3-0.3,0.8,0.3,0.5,0.6C131.5,189.9,131,189.3,131.4,189.1z"/>
	<path d="M152.3,188.9c1.1,0.1,1.9,1.1,2.6,1.9c-0.4,0-0.9,0.1-1.3,0.1c-0.2,0.4-0.3,0.8-0.6,1.1C152.6,191,152.4,190,152.3,188.9
		L152.3,188.9z"/>
	<path d="M133.9,191.9c0.3-0.8,0.7-1.6,1.2-2.4c0.7,0.1,1.3,0.3,1.7,0.9c-0.6,0-1.2-0.1-1.7-0.2c0.4,0.4,0.7,0.7,1.1,1.1
		c-0.5,0-1-0.1-1.5-0.1c0.4,0.5,0.8,0.9,1.1,1.4C135.1,192.4,134.5,192.2,133.9,191.9z"/>
	<path class="st0" d="M137.9,193.7c0-1.1,0.3-2.1,0.7-3.1c0.7,0.1,1.3,0.3,2,0.5c0,0.9-0.2,1.8-0.5,2.7c-0.1,0-0.4,0.1-0.5,0.2
		c-0.1-0.4-0.2-0.9-0.3-1.3C138.8,193,138.3,193.4,137.9,193.7z"/>
	<path d="M142,191.3c0.7,0,1.4,0,2.1,0c-0.7,0.7-0.8,1.7-0.8,2.6c-0.1,0-0.4-0.1-0.6-0.1C142.9,192.8,142.8,191.9,142,191.3
		L142,191.3z"/>
	<path d="M145.7,191.2c0.4,0.1,0.8,0.3,1.2,0.5c0.3-0.2,0.6-0.4,0.9-0.6c-0.2,1-0.4,2-0.5,3C146.8,193.1,146.2,192.1,145.7,191.2z"
		/>
	<g>
		<path class="st0" d="M235,195.4c0.7-0.8,1.1-1.9,2.1-2.4c-0.3,0.9-0.9,1.7-0.7,2.7c0,0.8,0.9,1.2,1.4,1.7c2.3,1.5,4.7,3,7,4.5
			c0.8,0.4,1.5,1,2.4,1c1.2,0.1,1.8-1.2,2.8-1.6c-0.9,1.8-2.2,3.2-3.3,4.9c-0.7,0.9-1.2,2.1-2.3,2.7c0.2-1.1,1.3-2.3,0.4-3.3
			c-1.6-1.5-3.6-2.5-5.3-3.7c-1.6-1-3.1-2.2-4.8-2.8c-1.3-0.5-2,1.2-3.1,1.5C232.5,198.7,233.9,197.1,235,195.4L235,195.4z"/>
		<path class="st0" d="M53.9,199.8c0.3,0.2,0.7,0.3,0.9,0.6c1.6,1.6,3,3.3,4.5,4.9c0.4,0.4,0.7,0.8,0.9,1.4
			c-1.1-0.5-2.4-1.6-3.7-0.9c-1.5,1-2.9,2.2-4.2,3.4c2,2.1,3.8,4.3,5.9,6.3c1.5-1.3,3.4-2.4,4.4-4.1c0.5-1.2-0.9-2-0.7-3.1
			c1.3,1.1,2.3,2.5,3.5,3.7c1,1.1,2.1,2,2.8,3.2c-1.1-0.3-2-1.6-3.3-1.2c-1.3,0.6-2.3,1.6-3.4,2.5c-1.9,1.7-4.1,3.2-5.8,5.2
			c-0.8,1.2,0.5,2.3,0.7,3.5c-1.4-1-2.3-2.5-3.6-3.7c-0.9-1.1-2.2-2.1-2.7-3.5c1,0.6,2,1.7,3.4,1.3c1.5-0.7,2.6-1.9,3.9-2.9
			c-1-1.4-2.3-2.5-3.3-3.8c-0.8-0.9-1.6-1.8-2.5-2.7c-1.2,1.1-2.7,1.9-3.5,3.3c-0.6,1.1,0.3,2.3,0.7,3.3c-1.8-1.2-3-3.1-4.5-4.6
			c-0.6-0.7-1.4-1.3-1.8-2.2c1.1,0.3,1.9,1.6,3.2,1.2c1.8-0.9,3.2-2.5,4.8-3.7c1.5-1.4,3.3-2.5,4.5-4.2
			C55.4,201.8,54.2,200.8,53.9,199.8z"/>
		<path class="st0" d="M226.9,206c0.5-0.6,1-1.1,1.7-1.5c-0.3,0.9-1,1.7-1.2,2.6c0,1,0.8,1.8,1.5,2.4c2.8,2.4,5.6,4.8,8.4,7.2
			c1.1-1,2.2-2.2,2.3-3.7c0.1-1.2-0.6-2.2-0.8-3.3c1.5,1,2.6,2.5,3.8,3.7c-1.8,0.2-2.8,2-3.9,3.1c-1.8,1.9-3.6,3.9-5.4,5.8
			c-0.5,0.5-0.6,1.2-0.8,1.9c-1.5-1-3.1-1.9-4.3-3.2c1.2,0.1,2.4,0.8,3.7,0.4c1.5-0.3,2.5-1.5,3.5-2.6c-2.2-2-4.5-3.8-6.7-5.8
			c-1.3-1-2.5-2.5-4.2-2.8c-1.1,0.3-1.8,1.2-2.8,1.7c0.1-0.4,0.4-0.8,0.7-1.2C223.8,209.2,225.4,207.7,226.9,206L226.9,206z"/>
		<path class="st0" d="M211.5,220.3c1.6-1.2,3.1-2.6,4.9-3.5c-0.4,0.9-1.2,1.6-1.6,2.5c-0.1,0.9,0.6,1.7,1.1,2.4
			c0.8,0.9,1.5,1.9,2.6,2.4c2.1,0.9,4.2,1.9,6.3,2.7c1.3,0.5,2.7,0,4-0.3c-0.8,1.2-2,1.8-3.1,2.7c-1.2,0.9-2.2,1.9-3.6,2.5
			c0.3-0.6,0.7-1.3,1.1-1.9c-0.4-0.6-1-1.1-1.7-1.3c-1.7-0.8-3.4-1.6-5.1-2.3c0.2,1.5,0.6,3,1,4.4c0.3,0.8,0.5,1.7,1.3,2.3
			c0.7,0,1.5-0.1,2.2-0.1c-1.7,1.5-3.5,3-5.5,4.2c0.3-1,1-1.7,1.4-2.7c0.1-0.9,0.1-1.7-0.1-2.6c-0.4-1.7-0.6-3.5-1-5.2
			c-0.2-1-1-1.7-1.6-2.4c-0.7-0.7-1.3-1.5-2.2-1.9c-1.2-0.3-2.3,0.6-3.4,0.9C209.2,221.8,210.5,221.2,211.5,220.3L211.5,220.3z"/>
		<path class="st0" d="M72,218c1.9,1.1,3.6,2.6,5.4,3.9c0.9,0.8,2.2,1.3,2.8,2.4c-1.2-0.3-2.6-1.5-3.8-0.7c-1.7,1.5-3,3.5-4.5,5.2
			c-1.2,1.6-2.7,3-3.7,4.7c1.1,0.8,2.3,1.8,3.8,1.9c1.3,0.1,2.3-0.6,3.5-1c-0.9,1.5-2.4,2.6-3.6,3.8c-0.3-0.7-0.5-1.4-1.2-1.8
			c-2.9-2.2-5.8-4.2-8.6-6.4c-0.6-0.5-1.4-0.6-2.1-0.7c0.8-1.5,1.7-3.1,3-4.3c-0.2,1.2-0.5,2.5-0.1,3.6c0.6,1.3,1.8,2.2,2.9,3
			c1.2-1.2,2.1-2.6,3.2-3.9c1.4-1.8,3-3.5,4.3-5.4c0.5-0.6,0.6-1.4,0.4-2.1C73.2,219.4,72.3,218.9,72,218L72,218z"/>
		<path class="st0" d="M237.1,233.1c0.2-0.2,0.5-0.4,0.7-0.7c0.5,0.2,1,0.4,1.6,0.6c0.1,0.2,0.2,0.5,0.2,0.6
			c0.3-0.3,0.6-0.6,0.9-0.9c0,0.6,0,1.2,0,1.8c-0.5,0-1.1-0.1-1.6-0.2c-0.1-0.4-0.1-0.8-0.2-1.2c-0.3,0.4-0.4,0.9-0.5,1.4
			C237.9,234,237.6,233.4,237.1,233.1L237.1,233.1z"/>
		<path class="st0" d="M89.6,238.8c0.8-0.2,1.7-0.3,2.3,0.4c0.7,0.5,0.7,1.5,0.4,2.3c-0.6,1.1-2.3,1.4-3.2,0.4
			C88.2,241.1,88.5,239.4,89.6,238.8z"/>
		<path class="st0" d="M193.1,238.8c1.3-1,3.5,0.4,3.1,2c-0.2,1.6-2.5,2.1-3.5,0.9C191.9,240.8,192.1,239.3,193.1,238.8L193.1,238.8
			z"/>
		<path class="st0" d="M169.6,241c0.7-0.2,1.1-1,1.6-1.5c0,1.2,0,2.4-0.1,3.7c-2.4,0.6-4.8,0.9-7.2,1.6c0.1,1.3,0.1,2.6,0.3,3.8
			c2.1-1,4.5-1.5,6.9-0.9c1.3,0.4,2.5,1.2,3.1,2.5c0.7,1.4,0.5,3.2-0.4,4.4c-1.3,1.8-3.5,2.8-5.6,3c-1.3,0.1-2.8,0-3.9-0.9
			c-0.6-0.6-0.4-1.4-0.4-2.2c0.8-0.7,1.8-0.8,2.8-0.6c0.2,0.8,0.3,1.9,1.1,2.4c1.3,1,3.5,0.2,4-1.4c0.6-1.9-0.3-4.5-2.4-4.9
			c-2.1-0.6-4.1,0.4-5.9,1.3c-0.2-2.9-0.4-5.7-0.7-8.6C165,241.8,167.4,241.6,169.6,241L169.6,241z"/>
		<path class="st0" d="M115.3,240.8c1.4,0,2.8,0.4,4.1,0.7c0.9,0.2,1.9,0.3,2.8,0.7c-1,2.8-1.5,5.7-2.1,8.6c-0.3,1.5-0.8,3-0.7,4.6
			c0.6,1.3,2.2,1.4,3.2,2.3c-1.4-0.1-2.7-0.4-4.1-0.7c-2-0.4-4-0.7-5.9-1.2c-0.1-0.1-0.4-0.3-0.5-0.4c1.2-0.2,2.6,0.2,3.6-0.7
			c0.9-1.1,1-2.6,1.3-4c0.5-2.4,1.3-4.8,1.4-7.2C118.3,241.9,116.3,241.7,115.3,240.8z"/>
		<path class="st0" d="M154.4,243.5c0.8-0.1,1.2-0.9,1.8-1.4c-0.2,1.3-0.4,2.6-0.8,3.8c-2.4,0-4.7,0.4-7.1,0.4
			c-0.3,1.3-0.3,2.6-0.3,3.9c2.3-0.6,4.8-0.9,7,0c1.8,0.7,3,2.6,2.7,4.6c-0.2,2-1.9,3.6-3.8,4.2c-1.4,0.4-2.9,0.8-4.4,0.4
			c-1.2-0.2-2.6-0.6-3-1.8c-0.3-0.7,0.1-1.4,0.6-1.9c0.7-0.4,1.6-0.3,2.3-0.1c0.2,0.9,0.1,2,0.8,2.6c0.8,0.8,1.9,0.6,2.9,0.4
			c2.4-1.3,2.2-5.4-0.3-6.4c-2-0.9-4.2-0.2-6.1,0.4c0.3-2.9,0.4-5.7,0.6-8.6C149.7,243.6,152.1,243.9,154.4,243.5L154.4,243.5z"/>
		<path class="st0" d="M131.3,244.5c1.7-1.2,3.9-1.4,5.9-1c1.4,0.3,2.9,1.1,3.5,2.5c0.2,0.8,0.2,1.8-0.4,2.5c-0.8,1-2,1.5-3.2,2
			c1,1.2,2.6,1.9,3.3,3.4c0.7,1.3,0.3,2.9-0.7,3.9c-1.3,1.1-3,1.6-4.7,1.5c-1.9,0.1-3.9-0.5-5.3-1.8c-1.1-1.1-1.2-3-0.1-4.2
			c0.9-1,2.2-1.4,3.3-2c0-0.1,0.1-0.2,0.1-0.3c-1.2-1-3-2-3-3.8C130,246.2,130.5,245.2,131.3,244.5z"/>
	</g>
	<path d="M133.1,247c-0.5-1.4,0.7-3.1,2.3-3c1.2-0.1,2.3,0.9,2.5,2.1c0.5,1.6-0.4,3.1-1.2,4.3C135.4,249.4,133.7,248.6,133.1,247z"
		/>
	<path d="M133.6,251.8c0.5-0.1,0.8,0.2,1.2,0.4c1,0.7,2.1,1.5,2.6,2.7c0.4,0.9,0.3,2-0.3,2.9c-1,1.5-3.4,1.3-4.3-0.1
		C131.5,255.9,132,253.2,133.6,251.8z"/>
</g>
<path d="M138.3,190.8c0.6,0,1.6-0.3,2,0.4c0,0.8-0.2,1.6-0.3,2.5c-0.3-0.5-0.6-0.9-0.9-1.4c-0.3,0.5-0.6,1-0.8,1.4
	C138,192.8,138.1,191.8,138.3,190.8z"/>
<path class="st0" d="M138.6,191.5c0-0.5,0.9-0.4,0.9,0.1"/>
</svg>
